%YAML 1.1
%TAG !u! tag:unity3d.com,2011:
--- !u!114 &11400000
MonoBehaviour:
  m_ObjectHideFlags: 0
  m_CorrespondingSourceObject: {fileID: 0}
  m_PrefabInternal: {fileID: 0}
  m_GameObject: {fileID: 0}
  m_Enabled: 1
  m_EditorHideFlags: 0
  m_Script: {fileID: 11500000, guid: 8456d4c8a171b7a49988af57141ed6d0, type: 3}
  m_Name: New Tree
  m_EditorClassIdentifier: 
  nodes:
  - {fileID: 114251516944206090}
  - {fileID: 114830122380590926}
  - {fileID: 114146168225242456}
  - {fileID: 114387506360263250}
  - {fileID: 114885980411947338}
  - {fileID: 114003773914227380}
  - {fileID: 114238796393262762}
  - {fileID: 114793481134149004}
  - {fileID: 114002066927751296}
  connections:
  - _inPointGUID: 42436d78-eef8-4264-bcc1-79f9b1ca8f8c
    _outPointGUID: 3b466cf1-c324-439e-bb07-941f1ec2f7f8
  - _inPointGUID: 3ba533a5-6efb-4af1-ab4c-68d55ecd4eca
    _outPointGUID: 42436d78-eef8-4264-bcc1-79f9b1ca8f8c
  - _inPointGUID: 20a97fa3-b252-4a12-afad-d93446972202
    _outPointGUID: 3ba533a5-6efb-4af1-ab4c-68d55ecd4eca
  - _inPointGUID: a60f64eb-9323-4ef2-a59c-db131d87f513
    _outPointGUID: 20a97fa3-b252-4a12-afad-d93446972202
  - _inPointGUID: d7f2aed0-5c1f-4903-b58e-95701f3989e9
    _outPointGUID: 3e0eb8bb-d6b7-4f2c-92f7-45e05d65148c
  - _inPointGUID: 63e1668e-1363-47d0-b69a-d35dc16c67ce
    _outPointGUID: a60f64eb-9323-4ef2-a59c-db131d87f513
  - _inPointGUID: 3e0eb8bb-d6b7-4f2c-92f7-45e05d65148c
    _outPointGUID: 63e1668e-1363-47d0-b69a-d35dc16c67ce
  - _inPointGUID: 04341977-7db4-455c-bd47-9cf86c0a0e99
    _outPointGUID: 3e0eb8bb-d6b7-4f2c-92f7-45e05d65148c
--- !u!114 &114002066927751296
MonoBehaviour:
  m_ObjectHideFlags: 0
  m_CorrespondingSourceObject: {fileID: 0}
  m_PrefabInternal: {fileID: 0}
  m_GameObject: {fileID: 0}
  m_Enabled: 1
  m_EditorHideFlags: 0
  m_Script: {fileID: 11500000, guid: a87b12b1396c6e64789efbdeef6c193b, type: 3}
  m_Name: 
  m_EditorClassIdentifier: 
  rect:
    serializedVersion: 2
    x: 295
    y: 639
    width: 300
    height: 150
  inPoint:
    rect:
      serializedVersion: 2
      x: 293
      y: 704
      width: 10
      height: 20
    type: 0
    style:
      m_Name: 
      m_Normal:
        m_Background: {fileID: -137945306764144326, guid: 0000000000000000d000000000000000,
          type: 0}
        m_ScaledBackgrounds: []
        m_TextColor: {r: 0, g: 0, b: 0, a: 1}
      m_Hover:
        m_Background: {fileID: 0}
        m_ScaledBackgrounds: []
        m_TextColor: {r: 0, g: 0, b: 0, a: 1}
      m_Active:
        m_Background: {fileID: 7748859771797447999, guid: 0000000000000000d000000000000000,
          type: 0}
        m_ScaledBackgrounds: []
        m_TextColor: {r: 0, g: 0, b: 0, a: 1}
      m_Focused:
        m_Background: {fileID: 0}
        m_ScaledBackgrounds: []
        m_TextColor: {r: 0, g: 0, b: 0, a: 1}
      m_OnNormal:
        m_Background: {fileID: 0}
        m_ScaledBackgrounds: []
        m_TextColor: {r: 0, g: 0, b: 0, a: 1}
      m_OnHover:
        m_Background: {fileID: 0}
        m_ScaledBackgrounds: []
        m_TextColor: {r: 0, g: 0, b: 0, a: 1}
      m_OnActive:
        m_Background: {fileID: 0}
        m_ScaledBackgrounds: []
        m_TextColor: {r: 0, g: 0, b: 0, a: 1}
      m_OnFocused:
        m_Background: {fileID: 0}
        m_ScaledBackgrounds: []
        m_TextColor: {r: 0, g: 0, b: 0, a: 1}
      m_Border:
        m_Left: 4
        m_Right: 4
        m_Top: 12
        m_Bottom: 12
      m_Margin:
        m_Left: 0
        m_Right: 0
        m_Top: 0
        m_Bottom: 0
      m_Padding:
        m_Left: 0
        m_Right: 0
        m_Top: 0
        m_Bottom: 0
      m_Overflow:
        m_Left: 0
        m_Right: 0
        m_Top: 0
        m_Bottom: 0
      m_Font: {fileID: 0}
      m_FontSize: 0
      m_FontStyle: 0
      m_Alignment: 0
      m_WordWrap: 0
      m_RichText: 1
      m_TextClipping: 0
      m_ImagePosition: 0
      m_ContentOffset: {x: 0, y: 0}
      m_FixedWidth: 0
      m_FixedHeight: 0
      m_StretchWidth: 1
      m_StretchHeight: 0
    _nodeID: 04341977-7db4-455c-bd47-9cf86c0a0e99
  outPoint:
    rect:
      serializedVersion: 2
      x: 587
      y: 704
      width: 10
      height: 20
    type: 1
    style:
      m_Name: 
      m_Normal:
        m_Background: {fileID: 5361632866341858327, guid: 0000000000000000d000000000000000,
          type: 0}
        m_ScaledBackgrounds: []
        m_TextColor: {r: 0, g: 0, b: 0, a: 1}
      m_Hover:
        m_Background: {fileID: 0}
        m_ScaledBackgrounds: []
        m_TextColor: {r: 0, g: 0, b: 0, a: 1}
      m_Active:
        m_Background: {fileID: 4979192565147231929, guid: 0000000000000000d000000000000000,
          type: 0}
        m_ScaledBackgrounds: []
        m_TextColor: {r: 0, g: 0, b: 0, a: 1}
      m_Focused:
        m_Background: {fileID: 0}
        m_ScaledBackgrounds: []
        m_TextColor: {r: 0, g: 0, b: 0, a: 1}
      m_OnNormal:
        m_Background: {fileID: 0}
        m_ScaledBackgrounds: []
        m_TextColor: {r: 0, g: 0, b: 0, a: 1}
      m_OnHover:
        m_Background: {fileID: 0}
        m_ScaledBackgrounds: []
        m_TextColor: {r: 0, g: 0, b: 0, a: 1}
      m_OnActive:
        m_Background: {fileID: 0}
        m_ScaledBackgrounds: []
        m_TextColor: {r: 0, g: 0, b: 0, a: 1}
      m_OnFocused:
        m_Background: {fileID: 0}
        m_ScaledBackgrounds: []
        m_TextColor: {r: 0, g: 0, b: 0, a: 1}
      m_Border:
        m_Left: 4
        m_Right: 4
        m_Top: 12
        m_Bottom: 12
      m_Margin:
        m_Left: 0
        m_Right: 0
        m_Top: 0
        m_Bottom: 0
      m_Padding:
        m_Left: 0
        m_Right: 0
        m_Top: 0
        m_Bottom: 0
      m_Overflow:
        m_Left: 0
        m_Right: 0
        m_Top: 0
        m_Bottom: 0
      m_Font: {fileID: 0}
      m_FontSize: 0
      m_FontStyle: 0
      m_Alignment: 0
      m_WordWrap: 0
      m_RichText: 1
      m_TextClipping: 0
      m_ImagePosition: 0
      m_ContentOffset: {x: 0, y: 0}
      m_FixedWidth: 0
      m_FixedHeight: 0
      m_StretchWidth: 1
      m_StretchHeight: 0
    _nodeID: 04341977-7db4-455c-bd47-9cf86c0a0e99
  currentStyle:
    m_Name: 
    m_Normal:
      m_Background: {fileID: -3453378117783705200, guid: 0000000000000000d000000000000000,
        type: 0}
      m_ScaledBackgrounds: []
      m_TextColor: {r: 0, g: 0, b: 0, a: 1}
    m_Hover:
      m_Background: {fileID: 0}
      m_ScaledBackgrounds: []
      m_TextColor: {r: 0, g: 0, b: 0, a: 1}
    m_Active:
      m_Background: {fileID: 0}
      m_ScaledBackgrounds: []
      m_TextColor: {r: 0, g: 0, b: 0, a: 1}
    m_Focused:
      m_Background: {fileID: 0}
      m_ScaledBackgrounds: []
      m_TextColor: {r: 0, g: 0, b: 0, a: 1}
    m_OnNormal:
      m_Background: {fileID: 0}
      m_ScaledBackgrounds: []
      m_TextColor: {r: 0, g: 0, b: 0, a: 1}
    m_OnHover:
      m_Background: {fileID: 0}
      m_ScaledBackgrounds: []
      m_TextColor: {r: 0, g: 0, b: 0, a: 1}
    m_OnActive:
      m_Background: {fileID: 0}
      m_ScaledBackgrounds: []
      m_TextColor: {r: 0, g: 0, b: 0, a: 1}
    m_OnFocused:
      m_Background: {fileID: 0}
      m_ScaledBackgrounds: []
      m_TextColor: {r: 0, g: 0, b: 0, a: 1}
    m_Border:
      m_Left: 12
      m_Right: 12
      m_Top: 12
      m_Bottom: 12
    m_Margin:
      m_Left: 0
      m_Right: 0
      m_Top: 0
      m_Bottom: 0
    m_Padding:
      m_Left: 0
      m_Right: 0
      m_Top: 0
      m_Bottom: 0
    m_Overflow:
      m_Left: 0
      m_Right: 0
      m_Top: 0
      m_Bottom: 0
    m_Font: {fileID: 0}
    m_FontSize: 0
    m_FontStyle: 0
    m_Alignment: 0
    m_WordWrap: 0
    m_RichText: 1
    m_TextClipping: 0
    m_ImagePosition: 0
    m_ContentOffset: {x: 0, y: 0}
    m_FixedWidth: 0
    m_FixedHeight: 0
    m_StretchWidth: 1
    m_StretchHeight: 0
  GUID: 04341977-7db4-455c-bd47-9cf86c0a0e99
  ID: 00000008
  serializableNextNodes: []
  filePath: 
  character:
    characterName: 
    characterText: 
--- !u!114 &114003773914227380
MonoBehaviour:
  m_ObjectHideFlags: 0
  m_CorrespondingSourceObject: {fileID: 0}
  m_PrefabInternal: {fileID: 0}
  m_GameObject: {fileID: 0}
  m_Enabled: 1
  m_EditorHideFlags: 0
  m_Script: {fileID: 11500000, guid: 26d276288199a2f40ad2f86894f2639e, type: 3}
  m_Name: 
  m_EditorClassIdentifier: 
  rect:
    serializedVersion: 2
    x: 631
    y: 645
    width: 60
    height: 50
  inPoint:
    rect:
      serializedVersion: 2
      x: 629
      y: 660
      width: 10
      height: 20
    type: 0
    style:
      m_Name: 
      m_Normal:
        m_Background: {fileID: -137945306764144326, guid: 0000000000000000d000000000000000,
          type: 0}
        m_ScaledBackgrounds: []
        m_TextColor: {r: 0, g: 0, b: 0, a: 1}
      m_Hover:
        m_Background: {fileID: 0}
        m_ScaledBackgrounds: []
        m_TextColor: {r: 0, g: 0, b: 0, a: 1}
      m_Active:
        m_Background: {fileID: 7748859771797447999, guid: 0000000000000000d000000000000000,
          type: 0}
        m_ScaledBackgrounds: []
        m_TextColor: {r: 0, g: 0, b: 0, a: 1}
      m_Focused:
        m_Background: {fileID: 0}
        m_ScaledBackgrounds: []
        m_TextColor: {r: 0, g: 0, b: 0, a: 1}
      m_OnNormal:
        m_Background: {fileID: 0}
        m_ScaledBackgrounds: []
        m_TextColor: {r: 0, g: 0, b: 0, a: 1}
      m_OnHover:
        m_Background: {fileID: 0}
        m_ScaledBackgrounds: []
        m_TextColor: {r: 0, g: 0, b: 0, a: 1}
      m_OnActive:
        m_Background: {fileID: 0}
        m_ScaledBackgrounds: []
        m_TextColor: {r: 0, g: 0, b: 0, a: 1}
      m_OnFocused:
        m_Background: {fileID: 0}
        m_ScaledBackgrounds: []
        m_TextColor: {r: 0, g: 0, b: 0, a: 1}
      m_Border:
        m_Left: 4
        m_Right: 4
        m_Top: 12
        m_Bottom: 12
      m_Margin:
        m_Left: 0
        m_Right: 0
        m_Top: 0
        m_Bottom: 0
      m_Padding:
        m_Left: 0
        m_Right: 0
        m_Top: 0
        m_Bottom: 0
      m_Overflow:
        m_Left: 0
        m_Right: 0
        m_Top: 0
        m_Bottom: 0
      m_Font: {fileID: 0}
      m_FontSize: 0
      m_FontStyle: 0
      m_Alignment: 0
      m_WordWrap: 0
      m_RichText: 1
      m_TextClipping: 0
      m_ImagePosition: 0
      m_ContentOffset: {x: 0, y: 0}
      m_FixedWidth: 0
      m_FixedHeight: 0
      m_StretchWidth: 1
      m_StretchHeight: 0
    _nodeID: d7f2aed0-5c1f-4903-b58e-95701f3989e9
  outPoint:
    rect:
      serializedVersion: 2
      x: 0
      y: 0
      width: 10
      height: 20
    type: 1
    style:
      m_Name: 
      m_Normal:
        m_Background: {fileID: 5361632866341858327, guid: 0000000000000000d000000000000000,
          type: 0}
        m_ScaledBackgrounds: []
        m_TextColor: {r: 0, g: 0, b: 0, a: 1}
      m_Hover:
        m_Background: {fileID: 0}
        m_ScaledBackgrounds: []
        m_TextColor: {r: 0, g: 0, b: 0, a: 1}
      m_Active:
        m_Background: {fileID: 4979192565147231929, guid: 0000000000000000d000000000000000,
          type: 0}
        m_ScaledBackgrounds: []
        m_TextColor: {r: 0, g: 0, b: 0, a: 1}
      m_Focused:
        m_Background: {fileID: 0}
        m_ScaledBackgrounds: []
        m_TextColor: {r: 0, g: 0, b: 0, a: 1}
      m_OnNormal:
        m_Background: {fileID: 0}
        m_ScaledBackgrounds: []
        m_TextColor: {r: 0, g: 0, b: 0, a: 1}
      m_OnHover:
        m_Background: {fileID: 0}
        m_ScaledBackgrounds: []
        m_TextColor: {r: 0, g: 0, b: 0, a: 1}
      m_OnActive:
        m_Background: {fileID: 0}
        m_ScaledBackgrounds: []
        m_TextColor: {r: 0, g: 0, b: 0, a: 1}
      m_OnFocused:
        m_Background: {fileID: 0}
        m_ScaledBackgrounds: []
        m_TextColor: {r: 0, g: 0, b: 0, a: 1}
      m_Border:
        m_Left: 4
        m_Right: 4
        m_Top: 12
        m_Bottom: 12
      m_Margin:
        m_Left: 0
        m_Right: 0
        m_Top: 0
        m_Bottom: 0
      m_Padding:
        m_Left: 0
        m_Right: 0
        m_Top: 0
        m_Bottom: 0
      m_Overflow:
        m_Left: 0
        m_Right: 0
        m_Top: 0
        m_Bottom: 0
      m_Font: {fileID: 0}
      m_FontSize: 0
      m_FontStyle: 0
      m_Alignment: 0
      m_WordWrap: 0
      m_RichText: 1
      m_TextClipping: 0
      m_ImagePosition: 0
      m_ContentOffset: {x: 0, y: 0}
      m_FixedWidth: 0
      m_FixedHeight: 0
      m_StretchWidth: 1
      m_StretchHeight: 0
    _nodeID: d7f2aed0-5c1f-4903-b58e-95701f3989e9
  currentStyle:
    m_Name: 
    m_Normal:
      m_Background: {fileID: -3453378117783705200, guid: 0000000000000000d000000000000000,
        type: 0}
      m_ScaledBackgrounds: []
      m_TextColor: {r: 0, g: 0, b: 0, a: 1}
    m_Hover:
      m_Background: {fileID: 0}
      m_ScaledBackgrounds: []
      m_TextColor: {r: 0, g: 0, b: 0, a: 1}
    m_Active:
      m_Background: {fileID: 0}
      m_ScaledBackgrounds: []
      m_TextColor: {r: 0, g: 0, b: 0, a: 1}
    m_Focused:
      m_Background: {fileID: 0}
      m_ScaledBackgrounds: []
      m_TextColor: {r: 0, g: 0, b: 0, a: 1}
    m_OnNormal:
      m_Background: {fileID: 0}
      m_ScaledBackgrounds: []
      m_TextColor: {r: 0, g: 0, b: 0, a: 1}
    m_OnHover:
      m_Background: {fileID: 0}
      m_ScaledBackgrounds: []
      m_TextColor: {r: 0, g: 0, b: 0, a: 1}
    m_OnActive:
      m_Background: {fileID: 0}
      m_ScaledBackgrounds: []
      m_TextColor: {r: 0, g: 0, b: 0, a: 1}
    m_OnFocused:
      m_Background: {fileID: 0}
      m_ScaledBackgrounds: []
      m_TextColor: {r: 0, g: 0, b: 0, a: 1}
    m_Border:
      m_Left: 12
      m_Right: 12
      m_Top: 12
      m_Bottom: 12
    m_Margin:
      m_Left: 0
      m_Right: 0
      m_Top: 0
      m_Bottom: 0
    m_Padding:
      m_Left: 0
      m_Right: 0
      m_Top: 0
      m_Bottom: 0
    m_Overflow:
      m_Left: 0
      m_Right: 0
      m_Top: 0
      m_Bottom: 0
    m_Font: {fileID: 0}
    m_FontSize: 0
    m_FontStyle: 0
    m_Alignment: 0
    m_WordWrap: 0
    m_RichText: 1
    m_TextClipping: 0
    m_ImagePosition: 0
    m_ContentOffset: {x: 0, y: 0}
    m_FixedWidth: 0
    m_FixedHeight: 0
    m_StretchWidth: 1
    m_StretchHeight: 0
  GUID: d7f2aed0-5c1f-4903-b58e-95701f3989e9
  ID: 00000005
  serializableNextNodes: []
--- !u!114 &114146168225242456
MonoBehaviour:
  m_ObjectHideFlags: 0
  m_CorrespondingSourceObject: {fileID: 0}
  m_PrefabInternal: {fileID: 0}
  m_GameObject: {fileID: 0}
  m_Enabled: 1
  m_EditorHideFlags: 0
  m_Script: {fileID: 11500000, guid: a82115047252aba4fa65f79291c01ba7, type: 3}
  m_Name: 
  m_EditorClassIdentifier: 
  rect:
    serializedVersion: 2
    x: 97
    y: 363
    width: 250
    height: 120
  inPoint:
    rect:
      serializedVersion: 2
      x: 95
      y: 413
      width: 10
      height: 20
    type: 0
    style:
      m_Name: 
      m_Normal:
        m_Background: {fileID: -137945306764144326, guid: 0000000000000000d000000000000000,
          type: 0}
        m_ScaledBackgrounds: []
        m_TextColor: {r: 0, g: 0, b: 0, a: 1}
      m_Hover:
        m_Background: {fileID: 0}
        m_ScaledBackgrounds: []
        m_TextColor: {r: 0, g: 0, b: 0, a: 1}
      m_Active:
        m_Background: {fileID: 7748859771797447999, guid: 0000000000000000d000000000000000,
          type: 0}
        m_ScaledBackgrounds: []
        m_TextColor: {r: 0, g: 0, b: 0, a: 1}
      m_Focused:
        m_Background: {fileID: 0}
        m_ScaledBackgrounds: []
        m_TextColor: {r: 0, g: 0, b: 0, a: 1}
      m_OnNormal:
        m_Background: {fileID: 0}
        m_ScaledBackgrounds: []
        m_TextColor: {r: 0, g: 0, b: 0, a: 1}
      m_OnHover:
        m_Background: {fileID: 0}
        m_ScaledBackgrounds: []
        m_TextColor: {r: 0, g: 0, b: 0, a: 1}
      m_OnActive:
        m_Background: {fileID: 0}
        m_ScaledBackgrounds: []
        m_TextColor: {r: 0, g: 0, b: 0, a: 1}
      m_OnFocused:
        m_Background: {fileID: 0}
        m_ScaledBackgrounds: []
        m_TextColor: {r: 0, g: 0, b: 0, a: 1}
      m_Border:
        m_Left: 4
        m_Right: 4
        m_Top: 12
        m_Bottom: 12
      m_Margin:
        m_Left: 0
        m_Right: 0
        m_Top: 0
        m_Bottom: 0
      m_Padding:
        m_Left: 0
        m_Right: 0
        m_Top: 0
        m_Bottom: 0
      m_Overflow:
        m_Left: 0
        m_Right: 0
        m_Top: 0
        m_Bottom: 0
      m_Font: {fileID: 0}
      m_FontSize: 0
      m_FontStyle: 0
      m_Alignment: 0
      m_WordWrap: 0
      m_RichText: 1
      m_TextClipping: 0
      m_ImagePosition: 0
      m_ContentOffset: {x: 0, y: 0}
      m_FixedWidth: 0
      m_FixedHeight: 0
      m_StretchWidth: 1
      m_StretchHeight: 0
    _nodeID: 3ba533a5-6efb-4af1-ab4c-68d55ecd4eca
  outPoint:
    rect:
      serializedVersion: 2
      x: 339
      y: 413
      width: 10
      height: 20
    type: 1
    style:
      m_Name: 
      m_Normal:
        m_Background: {fileID: 5361632866341858327, guid: 0000000000000000d000000000000000,
          type: 0}
        m_ScaledBackgrounds: []
        m_TextColor: {r: 0, g: 0, b: 0, a: 1}
      m_Hover:
        m_Background: {fileID: 0}
        m_ScaledBackgrounds: []
        m_TextColor: {r: 0, g: 0, b: 0, a: 1}
      m_Active:
        m_Background: {fileID: 4979192565147231929, guid: 0000000000000000d000000000000000,
          type: 0}
        m_ScaledBackgrounds: []
        m_TextColor: {r: 0, g: 0, b: 0, a: 1}
      m_Focused:
        m_Background: {fileID: 0}
        m_ScaledBackgrounds: []
        m_TextColor: {r: 0, g: 0, b: 0, a: 1}
      m_OnNormal:
        m_Background: {fileID: 0}
        m_ScaledBackgrounds: []
        m_TextColor: {r: 0, g: 0, b: 0, a: 1}
      m_OnHover:
        m_Background: {fileID: 0}
        m_ScaledBackgrounds: []
        m_TextColor: {r: 0, g: 0, b: 0, a: 1}
      m_OnActive:
        m_Background: {fileID: 0}
        m_ScaledBackgrounds: []
        m_TextColor: {r: 0, g: 0, b: 0, a: 1}
      m_OnFocused:
        m_Background: {fileID: 0}
        m_ScaledBackgrounds: []
        m_TextColor: {r: 0, g: 0, b: 0, a: 1}
      m_Border:
        m_Left: 4
        m_Right: 4
        m_Top: 12
        m_Bottom: 12
      m_Margin:
        m_Left: 0
        m_Right: 0
        m_Top: 0
        m_Bottom: 0
      m_Padding:
        m_Left: 0
        m_Right: 0
        m_Top: 0
        m_Bottom: 0
      m_Overflow:
        m_Left: 0
        m_Right: 0
        m_Top: 0
        m_Bottom: 0
      m_Font: {fileID: 0}
      m_FontSize: 0
      m_FontStyle: 0
      m_Alignment: 0
      m_WordWrap: 0
      m_RichText: 1
      m_TextClipping: 0
      m_ImagePosition: 0
      m_ContentOffset: {x: 0, y: 0}
      m_FixedWidth: 0
      m_FixedHeight: 0
      m_StretchWidth: 1
      m_StretchHeight: 0
    _nodeID: 3ba533a5-6efb-4af1-ab4c-68d55ecd4eca
  currentStyle:
    m_Name: 
    m_Normal:
      m_Background: {fileID: -3453378117783705200, guid: 0000000000000000d000000000000000,
        type: 0}
      m_ScaledBackgrounds: []
      m_TextColor: {r: 0, g: 0, b: 0, a: 1}
    m_Hover:
      m_Background: {fileID: 0}
      m_ScaledBackgrounds: []
      m_TextColor: {r: 0, g: 0, b: 0, a: 1}
    m_Active:
      m_Background: {fileID: 0}
      m_ScaledBackgrounds: []
      m_TextColor: {r: 0, g: 0, b: 0, a: 1}
    m_Focused:
      m_Background: {fileID: 0}
      m_ScaledBackgrounds: []
      m_TextColor: {r: 0, g: 0, b: 0, a: 1}
    m_OnNormal:
      m_Background: {fileID: 0}
      m_ScaledBackgrounds: []
      m_TextColor: {r: 0, g: 0, b: 0, a: 1}
    m_OnHover:
      m_Background: {fileID: 0}
      m_ScaledBackgrounds: []
      m_TextColor: {r: 0, g: 0, b: 0, a: 1}
    m_OnActive:
      m_Background: {fileID: 0}
      m_ScaledBackgrounds: []
      m_TextColor: {r: 0, g: 0, b: 0, a: 1}
    m_OnFocused:
      m_Background: {fileID: 0}
      m_ScaledBackgrounds: []
      m_TextColor: {r: 0, g: 0, b: 0, a: 1}
    m_Border:
      m_Left: 12
      m_Right: 12
      m_Top: 12
      m_Bottom: 12
    m_Margin:
      m_Left: 0
      m_Right: 0
      m_Top: 0
      m_Bottom: 0
    m_Padding:
      m_Left: 0
      m_Right: 0
      m_Top: 0
      m_Bottom: 0
    m_Overflow:
      m_Left: 0
      m_Right: 0
      m_Top: 0
      m_Bottom: 0
    m_Font: {fileID: 0}
    m_FontSize: 0
    m_FontStyle: 0
    m_Alignment: 0
    m_WordWrap: 0
    m_RichText: 1
    m_TextClipping: 0
    m_ImagePosition: 0
    m_ContentOffset: {x: 0, y: 0}
    m_FixedWidth: 0
    m_FixedHeight: 0
    m_StretchWidth: 1
    m_StretchHeight: 0
  GUID: 3ba533a5-6efb-4af1-ab4c-68d55ecd4eca
  ID: 00000002
  serializableNextNodes:
  - 20a97fa3-b252-4a12-afad-d93446972202
  raAmountInt: 1
  left: 0
  background: 0
  foreground: 0
  changeSprite: 0
  emotion: 0
  position: 0
  refName: 
  selection: 0
--- !u!114 &114238796393262762
MonoBehaviour:
  m_ObjectHideFlags: 0
  m_CorrespondingSourceObject: {fileID: 0}
  m_PrefabInternal: {fileID: 0}
  m_GameObject: {fileID: 0}
  m_Enabled: 1
  m_EditorHideFlags: 0
  m_Script: {fileID: 11500000, guid: a87b12b1396c6e64789efbdeef6c193b, type: 3}
  m_Name: 
  m_EditorClassIdentifier: 
  rect:
    serializedVersion: 2
    x: 416
    y: 480
    width: 300
    height: 150
  inPoint:
    rect:
      serializedVersion: 2
      x: 414
      y: 545
      width: 10
      height: 20
    type: 0
    style:
      m_Name: 
      m_Normal:
        m_Background: {fileID: -137945306764144326, guid: 0000000000000000d000000000000000,
          type: 0}
        m_ScaledBackgrounds: []
        m_TextColor: {r: 0, g: 0, b: 0, a: 1}
      m_Hover:
        m_Background: {fileID: 0}
        m_ScaledBackgrounds: []
        m_TextColor: {r: 0, g: 0, b: 0, a: 1}
      m_Active:
        m_Background: {fileID: 7748859771797447999, guid: 0000000000000000d000000000000000,
          type: 0}
        m_ScaledBackgrounds: []
        m_TextColor: {r: 0, g: 0, b: 0, a: 1}
      m_Focused:
        m_Background: {fileID: 0}
        m_ScaledBackgrounds: []
        m_TextColor: {r: 0, g: 0, b: 0, a: 1}
      m_OnNormal:
        m_Background: {fileID: 0}
        m_ScaledBackgrounds: []
        m_TextColor: {r: 0, g: 0, b: 0, a: 1}
      m_OnHover:
        m_Background: {fileID: 0}
        m_ScaledBackgrounds: []
        m_TextColor: {r: 0, g: 0, b: 0, a: 1}
      m_OnActive:
        m_Background: {fileID: 0}
        m_ScaledBackgrounds: []
        m_TextColor: {r: 0, g: 0, b: 0, a: 1}
      m_OnFocused:
        m_Background: {fileID: 0}
        m_ScaledBackgrounds: []
        m_TextColor: {r: 0, g: 0, b: 0, a: 1}
      m_Border:
        m_Left: 4
        m_Right: 4
        m_Top: 12
        m_Bottom: 12
      m_Margin:
        m_Left: 0
        m_Right: 0
        m_Top: 0
        m_Bottom: 0
      m_Padding:
        m_Left: 0
        m_Right: 0
        m_Top: 0
        m_Bottom: 0
      m_Overflow:
        m_Left: 0
        m_Right: 0
        m_Top: 0
        m_Bottom: 0
      m_Font: {fileID: 0}
      m_FontSize: 0
      m_FontStyle: 0
      m_Alignment: 0
      m_WordWrap: 0
      m_RichText: 1
      m_TextClipping: 0
      m_ImagePosition: 0
      m_ContentOffset: {x: 0, y: 0}
      m_FixedWidth: 0
      m_FixedHeight: 0
      m_StretchWidth: 1
      m_StretchHeight: 0
    _nodeID: 3e0eb8bb-d6b7-4f2c-92f7-45e05d65148c
  outPoint:
    rect:
      serializedVersion: 2
      x: 708
      y: 545
      width: 10
      height: 20
    type: 1
    style:
      m_Name: 
      m_Normal:
        m_Background: {fileID: 5361632866341858327, guid: 0000000000000000d000000000000000,
          type: 0}
        m_ScaledBackgrounds: []
        m_TextColor: {r: 0, g: 0, b: 0, a: 1}
      m_Hover:
        m_Background: {fileID: 0}
        m_ScaledBackgrounds: []
        m_TextColor: {r: 0, g: 0, b: 0, a: 1}
      m_Active:
        m_Background: {fileID: 4979192565147231929, guid: 0000000000000000d000000000000000,
          type: 0}
        m_ScaledBackgrounds: []
        m_TextColor: {r: 0, g: 0, b: 0, a: 1}
      m_Focused:
        m_Background: {fileID: 0}
        m_ScaledBackgrounds: []
        m_TextColor: {r: 0, g: 0, b: 0, a: 1}
      m_OnNormal:
        m_Background: {fileID: 0}
        m_ScaledBackgrounds: []
        m_TextColor: {r: 0, g: 0, b: 0, a: 1}
      m_OnHover:
        m_Background: {fileID: 0}
        m_ScaledBackgrounds: []
        m_TextColor: {r: 0, g: 0, b: 0, a: 1}
      m_OnActive:
        m_Background: {fileID: 0}
        m_ScaledBackgrounds: []
        m_TextColor: {r: 0, g: 0, b: 0, a: 1}
      m_OnFocused:
        m_Background: {fileID: 0}
        m_ScaledBackgrounds: []
        m_TextColor: {r: 0, g: 0, b: 0, a: 1}
      m_Border:
        m_Left: 4
        m_Right: 4
        m_Top: 12
        m_Bottom: 12
      m_Margin:
        m_Left: 0
        m_Right: 0
        m_Top: 0
        m_Bottom: 0
      m_Padding:
        m_Left: 0
        m_Right: 0
        m_Top: 0
        m_Bottom: 0
      m_Overflow:
        m_Left: 0
        m_Right: 0
        m_Top: 0
        m_Bottom: 0
      m_Font: {fileID: 0}
      m_FontSize: 0
      m_FontStyle: 0
      m_Alignment: 0
      m_WordWrap: 0
      m_RichText: 1
      m_TextClipping: 0
      m_ImagePosition: 0
      m_ContentOffset: {x: 0, y: 0}
      m_FixedWidth: 0
      m_FixedHeight: 0
      m_StretchWidth: 1
      m_StretchHeight: 0
    _nodeID: 3e0eb8bb-d6b7-4f2c-92f7-45e05d65148c
  currentStyle:
    m_Name: 
    m_Normal:
      m_Background: {fileID: -3453378117783705200, guid: 0000000000000000d000000000000000,
        type: 0}
      m_ScaledBackgrounds: []
      m_TextColor: {r: 0, g: 0, b: 0, a: 1}
    m_Hover:
      m_Background: {fileID: 0}
      m_ScaledBackgrounds: []
      m_TextColor: {r: 0, g: 0, b: 0, a: 1}
    m_Active:
      m_Background: {fileID: 0}
      m_ScaledBackgrounds: []
      m_TextColor: {r: 0, g: 0, b: 0, a: 1}
    m_Focused:
      m_Background: {fileID: 0}
      m_ScaledBackgrounds: []
      m_TextColor: {r: 0, g: 0, b: 0, a: 1}
    m_OnNormal:
      m_Background: {fileID: 0}
      m_ScaledBackgrounds: []
      m_TextColor: {r: 0, g: 0, b: 0, a: 1}
    m_OnHover:
      m_Background: {fileID: 0}
      m_ScaledBackgrounds: []
      m_TextColor: {r: 0, g: 0, b: 0, a: 1}
    m_OnActive:
      m_Background: {fileID: 0}
      m_ScaledBackgrounds: []
      m_TextColor: {r: 0, g: 0, b: 0, a: 1}
    m_OnFocused:
      m_Background: {fileID: 0}
      m_ScaledBackgrounds: []
      m_TextColor: {r: 0, g: 0, b: 0, a: 1}
    m_Border:
      m_Left: 12
      m_Right: 12
      m_Top: 12
      m_Bottom: 12
    m_Margin:
      m_Left: 0
      m_Right: 0
      m_Top: 0
      m_Bottom: 0
    m_Padding:
      m_Left: 0
      m_Right: 0
      m_Top: 0
      m_Bottom: 0
    m_Overflow:
      m_Left: 0
      m_Right: 0
      m_Top: 0
      m_Bottom: 0
    m_Font: {fileID: 0}
    m_FontSize: 0
    m_FontStyle: 0
    m_Alignment: 0
    m_WordWrap: 0
    m_RichText: 1
    m_TextClipping: 0
    m_ImagePosition: 0
    m_ContentOffset: {x: 0, y: 0}
    m_FixedWidth: 0
    m_FixedHeight: 0
    m_StretchWidth: 1
    m_StretchHeight: 0
  GUID: 3e0eb8bb-d6b7-4f2c-92f7-45e05d65148c
  ID: 00000006
  serializableNextNodes:
  - d7f2aed0-5c1f-4903-b58e-95701f3989e9
  - 04341977-7db4-455c-bd47-9cf86c0a0e99
  filePath: 
  character:
    characterName: 
    characterText: 
--- !u!114 &114251516944206090
MonoBehaviour:
  m_ObjectHideFlags: 0
  m_CorrespondingSourceObject: {fileID: 0}
  m_PrefabInternal: {fileID: 0}
  m_GameObject: {fileID: 0}
  m_Enabled: 1
  m_EditorHideFlags: 0
  m_Script: {fileID: 11500000, guid: 73d35226539ed4946ae2f1293af8a25e, type: 3}
  m_Name: 
  m_EditorClassIdentifier: 
  rect:
    serializedVersion: 2
    x: 59
    y: 159
    width: 60
    height: 50
  inPoint:
    rect:
      serializedVersion: 2
      x: 0
      y: 0
      width: 10
      height: 20
    type: 0
    style:
      m_Name: 
      m_Normal:
        m_Background: {fileID: -137945306764144326, guid: 0000000000000000d000000000000000,
          type: 0}
        m_ScaledBackgrounds: []
        m_TextColor: {r: 0, g: 0, b: 0, a: 1}
      m_Hover:
        m_Background: {fileID: 0}
        m_ScaledBackgrounds: []
        m_TextColor: {r: 0, g: 0, b: 0, a: 1}
      m_Active:
        m_Background: {fileID: 7748859771797447999, guid: 0000000000000000d000000000000000,
          type: 0}
        m_ScaledBackgrounds: []
        m_TextColor: {r: 0, g: 0, b: 0, a: 1}
      m_Focused:
        m_Background: {fileID: 0}
        m_ScaledBackgrounds: []
        m_TextColor: {r: 0, g: 0, b: 0, a: 1}
      m_OnNormal:
        m_Background: {fileID: 0}
        m_ScaledBackgrounds: []
        m_TextColor: {r: 0, g: 0, b: 0, a: 1}
      m_OnHover:
        m_Background: {fileID: 0}
        m_ScaledBackgrounds: []
        m_TextColor: {r: 0, g: 0, b: 0, a: 1}
      m_OnActive:
        m_Background: {fileID: 0}
        m_ScaledBackgrounds: []
        m_TextColor: {r: 0, g: 0, b: 0, a: 1}
      m_OnFocused:
        m_Background: {fileID: 0}
        m_ScaledBackgrounds: []
        m_TextColor: {r: 0, g: 0, b: 0, a: 1}
      m_Border:
        m_Left: 4
        m_Right: 4
        m_Top: 12
        m_Bottom: 12
      m_Margin:
        m_Left: 0
        m_Right: 0
        m_Top: 0
        m_Bottom: 0
      m_Padding:
        m_Left: 0
        m_Right: 0
        m_Top: 0
        m_Bottom: 0
      m_Overflow:
        m_Left: 0
        m_Right: 0
        m_Top: 0
        m_Bottom: 0
      m_Font: {fileID: 0}
      m_FontSize: 0
      m_FontStyle: 0
      m_Alignment: 0
      m_WordWrap: 0
      m_RichText: 1
      m_TextClipping: 0
      m_ImagePosition: 0
      m_ContentOffset: {x: 0, y: 0}
      m_FixedWidth: 0
      m_FixedHeight: 0
      m_StretchWidth: 1
      m_StretchHeight: 0
    _nodeID: 3b466cf1-c324-439e-bb07-941f1ec2f7f8
  outPoint:
    rect:
      serializedVersion: 2
      x: 111
      y: 174
      width: 10
      height: 20
    type: 1
    style:
      m_Name: 
      m_Normal:
        m_Background: {fileID: 5361632866341858327, guid: 0000000000000000d000000000000000,
          type: 0}
        m_ScaledBackgrounds: []
        m_TextColor: {r: 0, g: 0, b: 0, a: 1}
      m_Hover:
        m_Background: {fileID: 0}
        m_ScaledBackgrounds: []
        m_TextColor: {r: 0, g: 0, b: 0, a: 1}
      m_Active:
        m_Background: {fileID: 4979192565147231929, guid: 0000000000000000d000000000000000,
          type: 0}
        m_ScaledBackgrounds: []
        m_TextColor: {r: 0, g: 0, b: 0, a: 1}
      m_Focused:
        m_Background: {fileID: 0}
        m_ScaledBackgrounds: []
        m_TextColor: {r: 0, g: 0, b: 0, a: 1}
      m_OnNormal:
        m_Background: {fileID: 0}
        m_ScaledBackgrounds: []
        m_TextColor: {r: 0, g: 0, b: 0, a: 1}
      m_OnHover:
        m_Background: {fileID: 0}
        m_ScaledBackgrounds: []
        m_TextColor: {r: 0, g: 0, b: 0, a: 1}
      m_OnActive:
        m_Background: {fileID: 0}
        m_ScaledBackgrounds: []
        m_TextColor: {r: 0, g: 0, b: 0, a: 1}
      m_OnFocused:
        m_Background: {fileID: 0}
        m_ScaledBackgrounds: []
        m_TextColor: {r: 0, g: 0, b: 0, a: 1}
      m_Border:
        m_Left: 4
        m_Right: 4
        m_Top: 12
        m_Bottom: 12
      m_Margin:
        m_Left: 0
        m_Right: 0
        m_Top: 0
        m_Bottom: 0
      m_Padding:
        m_Left: 0
        m_Right: 0
        m_Top: 0
        m_Bottom: 0
      m_Overflow:
        m_Left: 0
        m_Right: 0
        m_Top: 0
        m_Bottom: 0
      m_Font: {fileID: 0}
      m_FontSize: 0
      m_FontStyle: 0
      m_Alignment: 0
      m_WordWrap: 0
      m_RichText: 1
      m_TextClipping: 0
      m_ImagePosition: 0
      m_ContentOffset: {x: 0, y: 0}
      m_FixedWidth: 0
      m_FixedHeight: 0
      m_StretchWidth: 1
      m_StretchHeight: 0
    _nodeID: 3b466cf1-c324-439e-bb07-941f1ec2f7f8
  currentStyle:
    m_Name: 
    m_Normal:
      m_Background: {fileID: -3453378117783705200, guid: 0000000000000000d000000000000000,
        type: 0}
      m_ScaledBackgrounds: []
      m_TextColor: {r: 0, g: 0, b: 0, a: 1}
    m_Hover:
      m_Background: {fileID: 0}
      m_ScaledBackgrounds: []
      m_TextColor: {r: 0, g: 0, b: 0, a: 1}
    m_Active:
      m_Background: {fileID: 0}
      m_ScaledBackgrounds: []
      m_TextColor: {r: 0, g: 0, b: 0, a: 1}
    m_Focused:
      m_Background: {fileID: 0}
      m_ScaledBackgrounds: []
      m_TextColor: {r: 0, g: 0, b: 0, a: 1}
    m_OnNormal:
      m_Background: {fileID: 0}
      m_ScaledBackgrounds: []
      m_TextColor: {r: 0, g: 0, b: 0, a: 1}
    m_OnHover:
      m_Background: {fileID: 0}
      m_ScaledBackgrounds: []
      m_TextColor: {r: 0, g: 0, b: 0, a: 1}
    m_OnActive:
      m_Background: {fileID: 0}
      m_ScaledBackgrounds: []
      m_TextColor: {r: 0, g: 0, b: 0, a: 1}
    m_OnFocused:
      m_Background: {fileID: 0}
      m_ScaledBackgrounds: []
      m_TextColor: {r: 0, g: 0, b: 0, a: 1}
    m_Border:
      m_Left: 12
      m_Right: 12
      m_Top: 12
      m_Bottom: 12
    m_Margin:
      m_Left: 0
      m_Right: 0
      m_Top: 0
      m_Bottom: 0
    m_Padding:
      m_Left: 0
      m_Right: 0
      m_Top: 0
      m_Bottom: 0
    m_Overflow:
      m_Left: 0
      m_Right: 0
      m_Top: 0
      m_Bottom: 0
    m_Font: {fileID: 0}
    m_FontSize: 0
    m_FontStyle: 0
    m_Alignment: 0
    m_WordWrap: 0
    m_RichText: 1
    m_TextClipping: 0
    m_ImagePosition: 0
    m_ContentOffset: {x: 0, y: 0}
    m_FixedWidth: 0
    m_FixedHeight: 0
    m_StretchWidth: 1
    m_StretchHeight: 0
  GUID: 3b466cf1-c324-439e-bb07-941f1ec2f7f8
  ID: 00000000
  serializableNextNodes:
  - 42436d78-eef8-4264-bcc1-79f9b1ca8f8c
--- !u!114 &114387506360263250
MonoBehaviour:
  m_ObjectHideFlags: 0
  m_CorrespondingSourceObject: {fileID: 0}
  m_PrefabInternal: {fileID: 0}
  m_GameObject: {fileID: 0}
  m_Enabled: 1
  m_EditorHideFlags: 0
  m_Script: {fileID: 11500000, guid: a82115047252aba4fa65f79291c01ba7, type: 3}
  m_Name: 
  m_EditorClassIdentifier: 
  rect:
    serializedVersion: 2
    x: 413
    y: 212
    width: 250
    height: 120
  inPoint:
    rect:
      serializedVersion: 2
      x: 411
      y: 262
      width: 10
      height: 20
    type: 0
    style:
      m_Name: 
      m_Normal:
        m_Background: {fileID: -137945306764144326, guid: 0000000000000000d000000000000000,
          type: 0}
        m_ScaledBackgrounds: []
        m_TextColor: {r: 0, g: 0, b: 0, a: 1}
      m_Hover:
        m_Background: {fileID: 0}
        m_ScaledBackgrounds: []
        m_TextColor: {r: 0, g: 0, b: 0, a: 1}
      m_Active:
        m_Background: {fileID: 7748859771797447999, guid: 0000000000000000d000000000000000,
          type: 0}
        m_ScaledBackgrounds: []
        m_TextColor: {r: 0, g: 0, b: 0, a: 1}
      m_Focused:
        m_Background: {fileID: 0}
        m_ScaledBackgrounds: []
        m_TextColor: {r: 0, g: 0, b: 0, a: 1}
      m_OnNormal:
        m_Background: {fileID: 0}
        m_ScaledBackgrounds: []
        m_TextColor: {r: 0, g: 0, b: 0, a: 1}
      m_OnHover:
        m_Background: {fileID: 0}
        m_ScaledBackgrounds: []
        m_TextColor: {r: 0, g: 0, b: 0, a: 1}
      m_OnActive:
        m_Background: {fileID: 0}
        m_ScaledBackgrounds: []
        m_TextColor: {r: 0, g: 0, b: 0, a: 1}
      m_OnFocused:
        m_Background: {fileID: 0}
        m_ScaledBackgrounds: []
        m_TextColor: {r: 0, g: 0, b: 0, a: 1}
      m_Border:
        m_Left: 4
        m_Right: 4
        m_Top: 12
        m_Bottom: 12
      m_Margin:
        m_Left: 0
        m_Right: 0
        m_Top: 0
        m_Bottom: 0
      m_Padding:
        m_Left: 0
        m_Right: 0
        m_Top: 0
        m_Bottom: 0
      m_Overflow:
        m_Left: 0
        m_Right: 0
        m_Top: 0
        m_Bottom: 0
      m_Font: {fileID: 0}
      m_FontSize: 0
      m_FontStyle: 0
      m_Alignment: 0
      m_WordWrap: 0
      m_RichText: 1
      m_TextClipping: 0
      m_ImagePosition: 0
      m_ContentOffset: {x: 0, y: 0}
      m_FixedWidth: 0
      m_FixedHeight: 0
      m_StretchWidth: 1
      m_StretchHeight: 0
    _nodeID: 20a97fa3-b252-4a12-afad-d93446972202
  outPoint:
    rect:
      serializedVersion: 2
      x: 655
      y: 262
      width: 10
      height: 20
    type: 1
    style:
      m_Name: 
      m_Normal:
        m_Background: {fileID: 5361632866341858327, guid: 0000000000000000d000000000000000,
          type: 0}
        m_ScaledBackgrounds: []
        m_TextColor: {r: 0, g: 0, b: 0, a: 1}
      m_Hover:
        m_Background: {fileID: 0}
        m_ScaledBackgrounds: []
        m_TextColor: {r: 0, g: 0, b: 0, a: 1}
      m_Active:
        m_Background: {fileID: 4979192565147231929, guid: 0000000000000000d000000000000000,
          type: 0}
        m_ScaledBackgrounds: []
        m_TextColor: {r: 0, g: 0, b: 0, a: 1}
      m_Focused:
        m_Background: {fileID: 0}
        m_ScaledBackgrounds: []
        m_TextColor: {r: 0, g: 0, b: 0, a: 1}
      m_OnNormal:
        m_Background: {fileID: 0}
        m_ScaledBackgrounds: []
        m_TextColor: {r: 0, g: 0, b: 0, a: 1}
      m_OnHover:
        m_Background: {fileID: 0}
        m_ScaledBackgrounds: []
        m_TextColor: {r: 0, g: 0, b: 0, a: 1}
      m_OnActive:
        m_Background: {fileID: 0}
        m_ScaledBackgrounds: []
        m_TextColor: {r: 0, g: 0, b: 0, a: 1}
      m_OnFocused:
        m_Background: {fileID: 0}
        m_ScaledBackgrounds: []
        m_TextColor: {r: 0, g: 0, b: 0, a: 1}
      m_Border:
        m_Left: 4
        m_Right: 4
        m_Top: 12
        m_Bottom: 12
      m_Margin:
        m_Left: 0
        m_Right: 0
        m_Top: 0
        m_Bottom: 0
      m_Padding:
        m_Left: 0
        m_Right: 0
        m_Top: 0
        m_Bottom: 0
      m_Overflow:
        m_Left: 0
        m_Right: 0
        m_Top: 0
        m_Bottom: 0
      m_Font: {fileID: 0}
      m_FontSize: 0
      m_FontStyle: 0
      m_Alignment: 0
      m_WordWrap: 0
      m_RichText: 1
      m_TextClipping: 0
      m_ImagePosition: 0
      m_ContentOffset: {x: 0, y: 0}
      m_FixedWidth: 0
      m_FixedHeight: 0
      m_StretchWidth: 1
      m_StretchHeight: 0
    _nodeID: 20a97fa3-b252-4a12-afad-d93446972202
  currentStyle:
    m_Name: 
    m_Normal:
      m_Background: {fileID: -3453378117783705200, guid: 0000000000000000d000000000000000,
        type: 0}
      m_ScaledBackgrounds: []
      m_TextColor: {r: 0, g: 0, b: 0, a: 1}
    m_Hover:
      m_Background: {fileID: 0}
      m_ScaledBackgrounds: []
      m_TextColor: {r: 0, g: 0, b: 0, a: 1}
    m_Active:
      m_Background: {fileID: 0}
      m_ScaledBackgrounds: []
      m_TextColor: {r: 0, g: 0, b: 0, a: 1}
    m_Focused:
      m_Background: {fileID: 0}
      m_ScaledBackgrounds: []
      m_TextColor: {r: 0, g: 0, b: 0, a: 1}
    m_OnNormal:
      m_Background: {fileID: 0}
      m_ScaledBackgrounds: []
      m_TextColor: {r: 0, g: 0, b: 0, a: 1}
    m_OnHover:
      m_Background: {fileID: 0}
      m_ScaledBackgrounds: []
      m_TextColor: {r: 0, g: 0, b: 0, a: 1}
    m_OnActive:
      m_Background: {fileID: 0}
      m_ScaledBackgrounds: []
      m_TextColor: {r: 0, g: 0, b: 0, a: 1}
    m_OnFocused:
      m_Background: {fileID: 0}
      m_ScaledBackgrounds: []
      m_TextColor: {r: 0, g: 0, b: 0, a: 1}
    m_Border:
      m_Left: 12
      m_Right: 12
      m_Top: 12
      m_Bottom: 12
    m_Margin:
      m_Left: 0
      m_Right: 0
      m_Top: 0
      m_Bottom: 0
    m_Padding:
      m_Left: 0
      m_Right: 0
      m_Top: 0
      m_Bottom: 0
    m_Overflow:
      m_Left: 0
      m_Right: 0
      m_Top: 0
      m_Bottom: 0
    m_Font: {fileID: 0}
    m_FontSize: 0
    m_FontStyle: 0
    m_Alignment: 0
    m_WordWrap: 0
    m_RichText: 1
    m_TextClipping: 0
    m_ImagePosition: 0
    m_ContentOffset: {x: 0, y: 0}
    m_FixedWidth: 0
    m_FixedHeight: 0
    m_StretchWidth: 1
    m_StretchHeight: 0
  GUID: 20a97fa3-b252-4a12-afad-d93446972202
  ID: 00000003
  serializableNextNodes:
  - a60f64eb-9323-4ef2-a59c-db131d87f513
  raAmountInt: 1
  left: 1
  background: 1
  foreground: 0
  changeSprite: 0
  emotion: 0
  position: 0
  refName: Factory
  selection: 3
--- !u!114 &114793481134149004
MonoBehaviour:
  m_ObjectHideFlags: 0
  m_CorrespondingSourceObject: {fileID: 0}
  m_PrefabInternal: {fileID: 0}
  m_GameObject: {fileID: 0}
  m_Enabled: 1
  m_EditorHideFlags: 0
  m_Script: {fileID: 11500000, guid: 9009dc10e6a1a894cb39449de50b6cee, type: 3}
  m_Name: 
  m_EditorClassIdentifier: 
  rect:
    serializedVersion: 2
    x: 667
    y: 401
    width: 60
    height: 80
  inPoint:
    rect:
      serializedVersion: 2
      x: 665
      y: 431
      width: 10
      height: 20
    type: 0
    style:
      m_Name: 
      m_Normal:
        m_Background: {fileID: -137945306764144326, guid: 0000000000000000d000000000000000,
          type: 0}
        m_ScaledBackgrounds: []
        m_TextColor: {r: 0, g: 0, b: 0, a: 1}
      m_Hover:
        m_Background: {fileID: 0}
        m_ScaledBackgrounds: []
        m_TextColor: {r: 0, g: 0, b: 0, a: 1}
      m_Active:
        m_Background: {fileID: 7748859771797447999, guid: 0000000000000000d000000000000000,
          type: 0}
        m_ScaledBackgrounds: []
        m_TextColor: {r: 0, g: 0, b: 0, a: 1}
      m_Focused:
        m_Background: {fileID: 0}
        m_ScaledBackgrounds: []
        m_TextColor: {r: 0, g: 0, b: 0, a: 1}
      m_OnNormal:
        m_Background: {fileID: 0}
        m_ScaledBackgrounds: []
        m_TextColor: {r: 0, g: 0, b: 0, a: 1}
      m_OnHover:
        m_Background: {fileID: 0}
        m_ScaledBackgrounds: []
        m_TextColor: {r: 0, g: 0, b: 0, a: 1}
      m_OnActive:
        m_Background: {fileID: 0}
        m_ScaledBackgrounds: []
        m_TextColor: {r: 0, g: 0, b: 0, a: 1}
      m_OnFocused:
        m_Background: {fileID: 0}
        m_ScaledBackgrounds: []
        m_TextColor: {r: 0, g: 0, b: 0, a: 1}
      m_Border:
        m_Left: 4
        m_Right: 4
        m_Top: 12
        m_Bottom: 12
      m_Margin:
        m_Left: 0
        m_Right: 0
        m_Top: 0
        m_Bottom: 0
      m_Padding:
        m_Left: 0
        m_Right: 0
        m_Top: 0
        m_Bottom: 0
      m_Overflow:
        m_Left: 0
        m_Right: 0
        m_Top: 0
        m_Bottom: 0
      m_Font: {fileID: 0}
      m_FontSize: 0
      m_FontStyle: 0
      m_Alignment: 0
      m_WordWrap: 0
      m_RichText: 1
      m_TextClipping: 0
      m_ImagePosition: 0
      m_ContentOffset: {x: 0, y: 0}
      m_FixedWidth: 0
      m_FixedHeight: 0
      m_StretchWidth: 1
      m_StretchHeight: 0
    _nodeID: 63e1668e-1363-47d0-b69a-d35dc16c67ce
  outPoint:
    rect:
      serializedVersion: 2
      x: 719
      y: 431
      width: 10
      height: 20
    type: 1
    style:
      m_Name: 
      m_Normal:
        m_Background: {fileID: 5361632866341858327, guid: 0000000000000000d000000000000000,
          type: 0}
        m_ScaledBackgrounds: []
        m_TextColor: {r: 0, g: 0, b: 0, a: 1}
      m_Hover:
        m_Background: {fileID: 0}
        m_ScaledBackgrounds: []
        m_TextColor: {r: 0, g: 0, b: 0, a: 1}
      m_Active:
        m_Background: {fileID: 4979192565147231929, guid: 0000000000000000d000000000000000,
          type: 0}
        m_ScaledBackgrounds: []
        m_TextColor: {r: 0, g: 0, b: 0, a: 1}
      m_Focused:
        m_Background: {fileID: 0}
        m_ScaledBackgrounds: []
        m_TextColor: {r: 0, g: 0, b: 0, a: 1}
      m_OnNormal:
        m_Background: {fileID: 0}
        m_ScaledBackgrounds: []
        m_TextColor: {r: 0, g: 0, b: 0, a: 1}
      m_OnHover:
        m_Background: {fileID: 0}
        m_ScaledBackgrounds: []
        m_TextColor: {r: 0, g: 0, b: 0, a: 1}
      m_OnActive:
        m_Background: {fileID: 0}
        m_ScaledBackgrounds: []
        m_TextColor: {r: 0, g: 0, b: 0, a: 1}
      m_OnFocused:
        m_Background: {fileID: 0}
        m_ScaledBackgrounds: []
        m_TextColor: {r: 0, g: 0, b: 0, a: 1}
      m_Border:
        m_Left: 4
        m_Right: 4
        m_Top: 12
        m_Bottom: 12
      m_Margin:
        m_Left: 0
        m_Right: 0
        m_Top: 0
        m_Bottom: 0
      m_Padding:
        m_Left: 0
        m_Right: 0
        m_Top: 0
        m_Bottom: 0
      m_Overflow:
        m_Left: 0
        m_Right: 0
        m_Top: 0
        m_Bottom: 0
      m_Font: {fileID: 0}
      m_FontSize: 0
      m_FontStyle: 0
      m_Alignment: 0
      m_WordWrap: 0
      m_RichText: 1
      m_TextClipping: 0
      m_ImagePosition: 0
      m_ContentOffset: {x: 0, y: 0}
      m_FixedWidth: 0
      m_FixedHeight: 0
      m_StretchWidth: 1
      m_StretchHeight: 0
    _nodeID: 63e1668e-1363-47d0-b69a-d35dc16c67ce
  currentStyle:
    m_Name: 
    m_Normal:
      m_Background: {fileID: -3453378117783705200, guid: 0000000000000000d000000000000000,
        type: 0}
      m_ScaledBackgrounds: []
      m_TextColor: {r: 0, g: 0, b: 0, a: 1}
    m_Hover:
      m_Background: {fileID: 0}
      m_ScaledBackgrounds: []
      m_TextColor: {r: 0, g: 0, b: 0, a: 1}
    m_Active:
      m_Background: {fileID: 0}
      m_ScaledBackgrounds: []
      m_TextColor: {r: 0, g: 0, b: 0, a: 1}
    m_Focused:
      m_Background: {fileID: 0}
      m_ScaledBackgrounds: []
      m_TextColor: {r: 0, g: 0, b: 0, a: 1}
    m_OnNormal:
      m_Background: {fileID: 0}
      m_ScaledBackgrounds: []
      m_TextColor: {r: 0, g: 0, b: 0, a: 1}
    m_OnHover:
      m_Background: {fileID: 0}
      m_ScaledBackgrounds: []
      m_TextColor: {r: 0, g: 0, b: 0, a: 1}
    m_OnActive:
      m_Background: {fileID: 0}
      m_ScaledBackgrounds: []
      m_TextColor: {r: 0, g: 0, b: 0, a: 1}
    m_OnFocused:
      m_Background: {fileID: 0}
      m_ScaledBackgrounds: []
      m_TextColor: {r: 0, g: 0, b: 0, a: 1}
    m_Border:
      m_Left: 12
      m_Right: 12
      m_Top: 12
      m_Bottom: 12
    m_Margin:
      m_Left: 0
      m_Right: 0
      m_Top: 0
      m_Bottom: 0
    m_Padding:
      m_Left: 0
      m_Right: 0
      m_Top: 0
      m_Bottom: 0
    m_Overflow:
      m_Left: 0
      m_Right: 0
      m_Top: 0
      m_Bottom: 0
    m_Font: {fileID: 0}
    m_FontSize: 0
    m_FontStyle: 0
    m_Alignment: 0
    m_WordWrap: 0
    m_RichText: 1
    m_TextClipping: 0
    m_ImagePosition: 0
    m_ContentOffset: {x: 0, y: 0}
    m_FixedWidth: 0
    m_FixedHeight: 0
    m_StretchWidth: 1
    m_StretchHeight: 0
  GUID: 63e1668e-1363-47d0-b69a-d35dc16c67ce
  ID: 00000007
  serializableNextNodes:
  - 3e0eb8bb-d6b7-4f2c-92f7-45e05d65148c
  answerPanel: 0
  dialoguePanel: 1
  relationPanel: 0
--- !u!114 &114830122380590926
MonoBehaviour:
  m_ObjectHideFlags: 0
  m_CorrespondingSourceObject: {fileID: 0}
  m_PrefabInternal: {fileID: 0}
  m_GameObject: {fileID: 0}
  m_Enabled: 1
  m_EditorHideFlags: 0
  m_Script: {fileID: 11500000, guid: a82115047252aba4fa65f79291c01ba7, type: 3}
  m_Name: 
  m_EditorClassIdentifier: 
  rect:
    serializedVersion: 2
    x: 125
    y: 216
    width: 250
    height: 120
  inPoint:
    rect:
      serializedVersion: 2
      x: 123
      y: 266
      width: 10
      height: 20
    type: 0
    style:
      m_Name: 
      m_Normal:
        m_Background: {fileID: -137945306764144326, guid: 0000000000000000d000000000000000,
          type: 0}
        m_ScaledBackgrounds: []
        m_TextColor: {r: 0, g: 0, b: 0, a: 1}
      m_Hover:
        m_Background: {fileID: 0}
        m_ScaledBackgrounds: []
        m_TextColor: {r: 0, g: 0, b: 0, a: 1}
      m_Active:
        m_Background: {fileID: 7748859771797447999, guid: 0000000000000000d000000000000000,
          type: 0}
        m_ScaledBackgrounds: []
        m_TextColor: {r: 0, g: 0, b: 0, a: 1}
      m_Focused:
        m_Background: {fileID: 0}
        m_ScaledBackgrounds: []
        m_TextColor: {r: 0, g: 0, b: 0, a: 1}
      m_OnNormal:
        m_Background: {fileID: 0}
        m_ScaledBackgrounds: []
        m_TextColor: {r: 0, g: 0, b: 0, a: 1}
      m_OnHover:
        m_Background: {fileID: 0}
        m_ScaledBackgrounds: []
        m_TextColor: {r: 0, g: 0, b: 0, a: 1}
      m_OnActive:
        m_Background: {fileID: 0}
        m_ScaledBackgrounds: []
        m_TextColor: {r: 0, g: 0, b: 0, a: 1}
      m_OnFocused:
        m_Background: {fileID: 0}
        m_ScaledBackgrounds: []
        m_TextColor: {r: 0, g: 0, b: 0, a: 1}
      m_Border:
        m_Left: 4
        m_Right: 4
        m_Top: 12
        m_Bottom: 12
      m_Margin:
        m_Left: 0
        m_Right: 0
        m_Top: 0
        m_Bottom: 0
      m_Padding:
        m_Left: 0
        m_Right: 0
        m_Top: 0
        m_Bottom: 0
      m_Overflow:
        m_Left: 0
        m_Right: 0
        m_Top: 0
        m_Bottom: 0
      m_Font: {fileID: 0}
      m_FontSize: 0
      m_FontStyle: 0
      m_Alignment: 0
      m_WordWrap: 0
      m_RichText: 1
      m_TextClipping: 0
      m_ImagePosition: 0
      m_ContentOffset: {x: 0, y: 0}
      m_FixedWidth: 0
      m_FixedHeight: 0
      m_StretchWidth: 1
      m_StretchHeight: 0
    _nodeID: 42436d78-eef8-4264-bcc1-79f9b1ca8f8c
  outPoint:
    rect:
      serializedVersion: 2
      x: 367
      y: 266
      width: 10
      height: 20
    type: 1
    style:
      m_Name: 
      m_Normal:
        m_Background: {fileID: 5361632866341858327, guid: 0000000000000000d000000000000000,
          type: 0}
        m_ScaledBackgrounds: []
        m_TextColor: {r: 0, g: 0, b: 0, a: 1}
      m_Hover:
        m_Background: {fileID: 0}
        m_ScaledBackgrounds: []
        m_TextColor: {r: 0, g: 0, b: 0, a: 1}
      m_Active:
        m_Background: {fileID: 4979192565147231929, guid: 0000000000000000d000000000000000,
          type: 0}
        m_ScaledBackgrounds: []
        m_TextColor: {r: 0, g: 0, b: 0, a: 1}
      m_Focused:
        m_Background: {fileID: 0}
        m_ScaledBackgrounds: []
        m_TextColor: {r: 0, g: 0, b: 0, a: 1}
      m_OnNormal:
        m_Background: {fileID: 0}
        m_ScaledBackgrounds: []
        m_TextColor: {r: 0, g: 0, b: 0, a: 1}
      m_OnHover:
        m_Background: {fileID: 0}
        m_ScaledBackgrounds: []
        m_TextColor: {r: 0, g: 0, b: 0, a: 1}
      m_OnActive:
        m_Background: {fileID: 0}
        m_ScaledBackgrounds: []
        m_TextColor: {r: 0, g: 0, b: 0, a: 1}
      m_OnFocused:
        m_Background: {fileID: 0}
        m_ScaledBackgrounds: []
        m_TextColor: {r: 0, g: 0, b: 0, a: 1}
      m_Border:
        m_Left: 4
        m_Right: 4
        m_Top: 12
        m_Bottom: 12
      m_Margin:
        m_Left: 0
        m_Right: 0
        m_Top: 0
        m_Bottom: 0
      m_Padding:
        m_Left: 0
        m_Right: 0
        m_Top: 0
        m_Bottom: 0
      m_Overflow:
        m_Left: 0
        m_Right: 0
        m_Top: 0
        m_Bottom: 0
      m_Font: {fileID: 0}
      m_FontSize: 0
      m_FontStyle: 0
      m_Alignment: 0
      m_WordWrap: 0
      m_RichText: 1
      m_TextClipping: 0
      m_ImagePosition: 0
      m_ContentOffset: {x: 0, y: 0}
      m_FixedWidth: 0
      m_FixedHeight: 0
      m_StretchWidth: 1
      m_StretchHeight: 0
    _nodeID: 42436d78-eef8-4264-bcc1-79f9b1ca8f8c
  currentStyle:
    m_Name: 
    m_Normal:
      m_Background: {fileID: -3453378117783705200, guid: 0000000000000000d000000000000000,
        type: 0}
      m_ScaledBackgrounds: []
      m_TextColor: {r: 0, g: 0, b: 0, a: 1}
    m_Hover:
      m_Background: {fileID: 0}
      m_ScaledBackgrounds: []
      m_TextColor: {r: 0, g: 0, b: 0, a: 1}
    m_Active:
      m_Background: {fileID: 0}
      m_ScaledBackgrounds: []
      m_TextColor: {r: 0, g: 0, b: 0, a: 1}
    m_Focused:
      m_Background: {fileID: 0}
      m_ScaledBackgrounds: []
      m_TextColor: {r: 0, g: 0, b: 0, a: 1}
    m_OnNormal:
      m_Background: {fileID: 0}
      m_ScaledBackgrounds: []
      m_TextColor: {r: 0, g: 0, b: 0, a: 1}
    m_OnHover:
      m_Background: {fileID: 0}
      m_ScaledBackgrounds: []
      m_TextColor: {r: 0, g: 0, b: 0, a: 1}
    m_OnActive:
      m_Background: {fileID: 0}
      m_ScaledBackgrounds: []
      m_TextColor: {r: 0, g: 0, b: 0, a: 1}
    m_OnFocused:
      m_Background: {fileID: 0}
      m_ScaledBackgrounds: []
      m_TextColor: {r: 0, g: 0, b: 0, a: 1}
    m_Border:
      m_Left: 12
      m_Right: 12
      m_Top: 12
      m_Bottom: 12
    m_Margin:
      m_Left: 0
      m_Right: 0
      m_Top: 0
      m_Bottom: 0
    m_Padding:
      m_Left: 0
      m_Right: 0
      m_Top: 0
      m_Bottom: 0
    m_Overflow:
      m_Left: 0
      m_Right: 0
      m_Top: 0
      m_Bottom: 0
    m_Font: {fileID: 0}
    m_FontSize: 0
    m_FontStyle: 0
    m_Alignment: 0
    m_WordWrap: 0
    m_RichText: 1
    m_TextClipping: 0
    m_ImagePosition: 0
    m_ContentOffset: {x: 0, y: 0}
    m_FixedWidth: 0
    m_FixedHeight: 0
    m_StretchWidth: 1
    m_StretchHeight: 0
  GUID: 42436d78-eef8-4264-bcc1-79f9b1ca8f8c
  ID: 00000001
  serializableNextNodes:
  - 3ba533a5-6efb-4af1-ab4c-68d55ecd4eca
  raAmountInt: 1
  left: 1
  background: 0
  foreground: 0
  changeSprite: 0
  emotion: 0
  position: 0
  refName: Dante
  selection: 3
--- !u!114 &114885980411947338
MonoBehaviour:
  m_ObjectHideFlags: 0
  m_CorrespondingSourceObject: {fileID: 0}
  m_PrefabInternal: {fileID: 0}
  m_GameObject: {fileID: 0}
  m_Enabled: 1
  m_EditorHideFlags: 0
  m_Script: {fileID: 11500000, guid: a82115047252aba4fa65f79291c01ba7, type: 3}
  m_Name: 
  m_EditorClassIdentifier: 
  rect:
    serializedVersion: 2
    x: 387
    y: 359
    width: 250
    height: 120
  inPoint:
    rect:
      serializedVersion: 2
      x: 385
      y: 409
      width: 10
      height: 20
    type: 0
    style:
      m_Name: 
      m_Normal:
        m_Background: {fileID: -137945306764144326, guid: 0000000000000000d000000000000000,
          type: 0}
        m_ScaledBackgrounds: []
        m_TextColor: {r: 0, g: 0, b: 0, a: 1}
      m_Hover:
        m_Background: {fileID: 0}
        m_ScaledBackgrounds: []
        m_TextColor: {r: 0, g: 0, b: 0, a: 1}
      m_Active:
        m_Background: {fileID: 7748859771797447999, guid: 0000000000000000d000000000000000,
          type: 0}
        m_ScaledBackgrounds: []
        m_TextColor: {r: 0, g: 0, b: 0, a: 1}
      m_Focused:
        m_Background: {fileID: 0}
        m_ScaledBackgrounds: []
        m_TextColor: {r: 0, g: 0, b: 0, a: 1}
      m_OnNormal:
        m_Background: {fileID: 0}
        m_ScaledBackgrounds: []
        m_TextColor: {r: 0, g: 0, b: 0, a: 1}
      m_OnHover:
        m_Background: {fileID: 0}
        m_ScaledBackgrounds: []
        m_TextColor: {r: 0, g: 0, b: 0, a: 1}
      m_OnActive:
        m_Background: {fileID: 0}
        m_ScaledBackgrounds: []
        m_TextColor: {r: 0, g: 0, b: 0, a: 1}
      m_OnFocused:
        m_Background: {fileID: 0}
        m_ScaledBackgrounds: []
        m_TextColor: {r: 0, g: 0, b: 0, a: 1}
      m_Border:
        m_Left: 4
        m_Right: 4
        m_Top: 12
        m_Bottom: 12
      m_Margin:
        m_Left: 0
        m_Right: 0
        m_Top: 0
        m_Bottom: 0
      m_Padding:
        m_Left: 0
        m_Right: 0
        m_Top: 0
        m_Bottom: 0
      m_Overflow:
        m_Left: 0
        m_Right: 0
        m_Top: 0
        m_Bottom: 0
      m_Font: {fileID: 0}
      m_FontSize: 0
      m_FontStyle: 0
      m_Alignment: 0
      m_WordWrap: 0
      m_RichText: 1
      m_TextClipping: 0
      m_ImagePosition: 0
      m_ContentOffset: {x: 0, y: 0}
      m_FixedWidth: 0
      m_FixedHeight: 0
      m_StretchWidth: 1
      m_StretchHeight: 0
    _nodeID: a60f64eb-9323-4ef2-a59c-db131d87f513
  outPoint:
    rect:
      serializedVersion: 2
      x: 629
      y: 409
      width: 10
      height: 20
    type: 1
    style:
      m_Name: 
      m_Normal:
        m_Background: {fileID: 5361632866341858327, guid: 0000000000000000d000000000000000,
          type: 0}
        m_ScaledBackgrounds: []
        m_TextColor: {r: 0, g: 0, b: 0, a: 1}
      m_Hover:
        m_Background: {fileID: 0}
        m_ScaledBackgrounds: []
        m_TextColor: {r: 0, g: 0, b: 0, a: 1}
      m_Active:
        m_Background: {fileID: 4979192565147231929, guid: 0000000000000000d000000000000000,
          type: 0}
        m_ScaledBackgrounds: []
        m_TextColor: {r: 0, g: 0, b: 0, a: 1}
      m_Focused:
        m_Background: {fileID: 0}
        m_ScaledBackgrounds: []
        m_TextColor: {r: 0, g: 0, b: 0, a: 1}
      m_OnNormal:
        m_Background: {fileID: 0}
        m_ScaledBackgrounds: []
        m_TextColor: {r: 0, g: 0, b: 0, a: 1}
      m_OnHover:
        m_Background: {fileID: 0}
        m_ScaledBackgrounds: []
        m_TextColor: {r: 0, g: 0, b: 0, a: 1}
      m_OnActive:
        m_Background: {fileID: 0}
        m_ScaledBackgrounds: []
        m_TextColor: {r: 0, g: 0, b: 0, a: 1}
      m_OnFocused:
        m_Background: {fileID: 0}
        m_ScaledBackgrounds: []
        m_TextColor: {r: 0, g: 0, b: 0, a: 1}
      m_Border:
        m_Left: 4
        m_Right: 4
        m_Top: 12
        m_Bottom: 12
      m_Margin:
        m_Left: 0
        m_Right: 0
        m_Top: 0
        m_Bottom: 0
      m_Padding:
        m_Left: 0
        m_Right: 0
        m_Top: 0
        m_Bottom: 0
      m_Overflow:
        m_Left: 0
        m_Right: 0
        m_Top: 0
        m_Bottom: 0
      m_Font: {fileID: 0}
      m_FontSize: 0
      m_FontStyle: 0
      m_Alignment: 0
      m_WordWrap: 0
      m_RichText: 1
      m_TextClipping: 0
      m_ImagePosition: 0
      m_ContentOffset: {x: 0, y: 0}
      m_FixedWidth: 0
      m_FixedHeight: 0
      m_StretchWidth: 1
      m_StretchHeight: 0
    _nodeID: a60f64eb-9323-4ef2-a59c-db131d87f513
  currentStyle:
    m_Name: 
    m_Normal:
      m_Background: {fileID: -3453378117783705200, guid: 0000000000000000d000000000000000,
        type: 0}
      m_ScaledBackgrounds: []
      m_TextColor: {r: 0, g: 0, b: 0, a: 1}
    m_Hover:
      m_Background: {fileID: 0}
      m_ScaledBackgrounds: []
      m_TextColor: {r: 0, g: 0, b: 0, a: 1}
    m_Active:
      m_Background: {fileID: 0}
      m_ScaledBackgrounds: []
      m_TextColor: {r: 0, g: 0, b: 0, a: 1}
    m_Focused:
      m_Background: {fileID: 0}
      m_ScaledBackgrounds: []
      m_TextColor: {r: 0, g: 0, b: 0, a: 1}
    m_OnNormal:
      m_Background: {fileID: 0}
      m_ScaledBackgrounds: []
      m_TextColor: {r: 0, g: 0, b: 0, a: 1}
    m_OnHover:
      m_Background: {fileID: 0}
      m_ScaledBackgrounds: []
      m_TextColor: {r: 0, g: 0, b: 0, a: 1}
    m_OnActive:
      m_Background: {fileID: 0}
      m_ScaledBackgrounds: []
      m_TextColor: {r: 0, g: 0, b: 0, a: 1}
    m_OnFocused:
      m_Background: {fileID: 0}
      m_ScaledBackgrounds: []
      m_TextColor: {r: 0, g: 0, b: 0, a: 1}
    m_Border:
      m_Left: 12
      m_Right: 12
      m_Top: 12
      m_Bottom: 12
    m_Margin:
      m_Left: 0
      m_Right: 0
      m_Top: 0
      m_Bottom: 0
    m_Padding:
      m_Left: 0
      m_Right: 0
      m_Top: 0
      m_Bottom: 0
    m_Overflow:
      m_Left: 0
      m_Right: 0
      m_Top: 0
      m_Bottom: 0
    m_Font: {fileID: 0}
    m_FontSize: 0
    m_FontStyle: 0
    m_Alignment: 0
    m_WordWrap: 0
    m_RichText: 1
    m_TextClipping: 0
    m_ImagePosition: 0
    m_ContentOffset: {x: 0, y: 0}
    m_FixedWidth: 0
    m_FixedHeight: 0
    m_StretchWidth: 1
    m_StretchHeight: 0
  GUID: a60f64eb-9323-4ef2-a59c-db131d87f513
  ID: 00000004
  serializableNextNodes:
  - 63e1668e-1363-47d0-b69a-d35dc16c67ce
  raAmountInt: 1
  left: 0
  background: 0
  foreground: 0
  changeSprite: 0
  emotion: 0
  position: 0
  refName: 
  selection: 1
