%YAML 1.1
%TAG !u! tag:unity3d.com,2011:
--- !u!114 &11400000
MonoBehaviour:
  m_ObjectHideFlags: 0
  m_CorrespondingSourceObject: {fileID: 0}
  m_PrefabInternal: {fileID: 0}
  m_GameObject: {fileID: 0}
  m_Enabled: 1
  m_EditorHideFlags: 0
  m_Script: {fileID: 11500000, guid: 8456d4c8a171b7a49988af57141ed6d0, type: 3}
  m_Name: SceneTest
  m_EditorClassIdentifier: 
  nodes:
  - {fileID: 114770356816941756}
  - {fileID: 114468495340347570}
  - {fileID: 114567444487857280}
  - {fileID: 114965145086039752}
  - {fileID: 114508920707600754}
  - {fileID: 114441101181886234}
  connections:
  - _inPointGUID: 162943dc-b94f-475f-b240-0f4071ffe50f
    _outPointGUID: bb8d45bf-2721-49fd-8d0e-22704070f745
  - _inPointGUID: 45953729-3aca-4ac2-95d5-07372e9c787c
    _outPointGUID: 162943dc-b94f-475f-b240-0f4071ffe50f
  - _inPointGUID: c3ebbda7-c034-4e68-a238-87c853bfb580
    _outPointGUID: 45953729-3aca-4ac2-95d5-07372e9c787c
  - _inPointGUID: 4887840d-481a-41c2-9b1f-5425a0445d2e
    _outPointGUID: c3ebbda7-c034-4e68-a238-87c853bfb580
  - _inPointGUID: 134017d4-cfe7-4530-bd66-6e7080d4ff4f
    _outPointGUID: 4887840d-481a-41c2-9b1f-5425a0445d2e
--- !u!114 &114441101181886234
MonoBehaviour:
  m_ObjectHideFlags: 0
  m_CorrespondingSourceObject: {fileID: 0}
  m_PrefabInternal: {fileID: 0}
  m_GameObject: {fileID: 0}
  m_Enabled: 1
  m_EditorHideFlags: 0
  m_Script: {fileID: 11500000, guid: 26d276288199a2f40ad2f86894f2639e, type: 3}
  m_Name: 
  m_EditorClassIdentifier: 
  rect:
    serializedVersion: 2
    x: 590
    y: 469
    width: 60
    height: 50
  inPoint:
    rect:
      serializedVersion: 2
      x: 588
      y: 484
      width: 10
      height: 20
    type: 0
    style:
      m_Name: 
      m_Normal:
        m_Background: {fileID: -137945306764144326, guid: 0000000000000000d000000000000000,
          type: 0}
        m_ScaledBackgrounds: []
        m_TextColor: {r: 0, g: 0, b: 0, a: 1}
      m_Hover:
        m_Background: {fileID: 0}
        m_ScaledBackgrounds: []
        m_TextColor: {r: 0, g: 0, b: 0, a: 1}
      m_Active:
        m_Background: {fileID: 7748859771797447999, guid: 0000000000000000d000000000000000,
          type: 0}
        m_ScaledBackgrounds: []
        m_TextColor: {r: 0, g: 0, b: 0, a: 1}
      m_Focused:
        m_Background: {fileID: 0}
        m_ScaledBackgrounds: []
        m_TextColor: {r: 0, g: 0, b: 0, a: 1}
      m_OnNormal:
        m_Background: {fileID: 0}
        m_ScaledBackgrounds: []
        m_TextColor: {r: 0, g: 0, b: 0, a: 1}
      m_OnHover:
        m_Background: {fileID: 0}
        m_ScaledBackgrounds: []
        m_TextColor: {r: 0, g: 0, b: 0, a: 1}
      m_OnActive:
        m_Background: {fileID: 0}
        m_ScaledBackgrounds: []
        m_TextColor: {r: 0, g: 0, b: 0, a: 1}
      m_OnFocused:
        m_Background: {fileID: 0}
        m_ScaledBackgrounds: []
        m_TextColor: {r: 0, g: 0, b: 0, a: 1}
      m_Border:
        m_Left: 4
        m_Right: 4
        m_Top: 12
        m_Bottom: 12
      m_Margin:
        m_Left: 0
        m_Right: 0
        m_Top: 0
        m_Bottom: 0
      m_Padding:
        m_Left: 0
        m_Right: 0
        m_Top: 0
        m_Bottom: 0
      m_Overflow:
        m_Left: 0
        m_Right: 0
        m_Top: 0
        m_Bottom: 0
      m_Font: {fileID: 0}
      m_FontSize: 0
      m_FontStyle: 0
      m_Alignment: 0
      m_WordWrap: 0
      m_RichText: 1
      m_TextClipping: 0
      m_ImagePosition: 0
      m_ContentOffset: {x: 0, y: 0}
      m_FixedWidth: 0
      m_FixedHeight: 0
      m_StretchWidth: 1
      m_StretchHeight: 0
    _nodeID: 134017d4-cfe7-4530-bd66-6e7080d4ff4f
  outPoint:
    rect:
      serializedVersion: 2
      x: 0
      y: 0
      width: 10
      height: 20
    type: 1
    style:
      m_Name: 
      m_Normal:
        m_Background: {fileID: 5361632866341858327, guid: 0000000000000000d000000000000000,
          type: 0}
        m_ScaledBackgrounds: []
        m_TextColor: {r: 0, g: 0, b: 0, a: 1}
      m_Hover:
        m_Background: {fileID: 0}
        m_ScaledBackgrounds: []
        m_TextColor: {r: 0, g: 0, b: 0, a: 1}
      m_Active:
        m_Background: {fileID: 4979192565147231929, guid: 0000000000000000d000000000000000,
          type: 0}
        m_ScaledBackgrounds: []
        m_TextColor: {r: 0, g: 0, b: 0, a: 1}
      m_Focused:
        m_Background: {fileID: 0}
        m_ScaledBackgrounds: []
        m_TextColor: {r: 0, g: 0, b: 0, a: 1}
      m_OnNormal:
        m_Background: {fileID: 0}
        m_ScaledBackgrounds: []
        m_TextColor: {r: 0, g: 0, b: 0, a: 1}
      m_OnHover:
        m_Background: {fileID: 0}
        m_ScaledBackgrounds: []
        m_TextColor: {r: 0, g: 0, b: 0, a: 1}
      m_OnActive:
        m_Background: {fileID: 0}
        m_ScaledBackgrounds: []
        m_TextColor: {r: 0, g: 0, b: 0, a: 1}
      m_OnFocused:
        m_Background: {fileID: 0}
        m_ScaledBackgrounds: []
        m_TextColor: {r: 0, g: 0, b: 0, a: 1}
      m_Border:
        m_Left: 4
        m_Right: 4
        m_Top: 12
        m_Bottom: 12
      m_Margin:
        m_Left: 0
        m_Right: 0
        m_Top: 0
        m_Bottom: 0
      m_Padding:
        m_Left: 0
        m_Right: 0
        m_Top: 0
        m_Bottom: 0
      m_Overflow:
        m_Left: 0
        m_Right: 0
        m_Top: 0
        m_Bottom: 0
      m_Font: {fileID: 0}
      m_FontSize: 0
      m_FontStyle: 0
      m_Alignment: 0
      m_WordWrap: 0
      m_RichText: 1
      m_TextClipping: 0
      m_ImagePosition: 0
      m_ContentOffset: {x: 0, y: 0}
      m_FixedWidth: 0
      m_FixedHeight: 0
      m_StretchWidth: 1
      m_StretchHeight: 0
    _nodeID: 134017d4-cfe7-4530-bd66-6e7080d4ff4f
  currentStyle:
    m_Name: 
    m_Normal:
      m_Background: {fileID: -3453378117783705200, guid: 0000000000000000d000000000000000,
        type: 0}
      m_ScaledBackgrounds: []
      m_TextColor: {r: 0, g: 0, b: 0, a: 1}
    m_Hover:
      m_Background: {fileID: 0}
      m_ScaledBackgrounds: []
      m_TextColor: {r: 0, g: 0, b: 0, a: 1}
    m_Active:
      m_Background: {fileID: 0}
      m_ScaledBackgrounds: []
      m_TextColor: {r: 0, g: 0, b: 0, a: 1}
    m_Focused:
      m_Background: {fileID: 0}
      m_ScaledBackgrounds: []
      m_TextColor: {r: 0, g: 0, b: 0, a: 1}
    m_OnNormal:
      m_Background: {fileID: 0}
      m_ScaledBackgrounds: []
      m_TextColor: {r: 0, g: 0, b: 0, a: 1}
    m_OnHover:
      m_Background: {fileID: 0}
      m_ScaledBackgrounds: []
      m_TextColor: {r: 0, g: 0, b: 0, a: 1}
    m_OnActive:
      m_Background: {fileID: 0}
      m_ScaledBackgrounds: []
      m_TextColor: {r: 0, g: 0, b: 0, a: 1}
    m_OnFocused:
      m_Background: {fileID: 0}
      m_ScaledBackgrounds: []
      m_TextColor: {r: 0, g: 0, b: 0, a: 1}
    m_Border:
      m_Left: 12
      m_Right: 12
      m_Top: 12
      m_Bottom: 12
    m_Margin:
      m_Left: 0
      m_Right: 0
      m_Top: 0
      m_Bottom: 0
    m_Padding:
      m_Left: 0
      m_Right: 0
      m_Top: 0
      m_Bottom: 0
    m_Overflow:
      m_Left: 0
      m_Right: 0
      m_Top: 0
      m_Bottom: 0
    m_Font: {fileID: 0}
    m_FontSize: 0
    m_FontStyle: 0
    m_Alignment: 0
    m_WordWrap: 0
    m_RichText: 1
    m_TextClipping: 0
    m_ImagePosition: 0
    m_ContentOffset: {x: 0, y: 0}
    m_FixedWidth: 0
    m_FixedHeight: 0
    m_StretchWidth: 1
    m_StretchHeight: 0
  GUID: 134017d4-cfe7-4530-bd66-6e7080d4ff4f
  ID: 00000005
  serializableNextNodes: []
--- !u!114 &114468495340347570
MonoBehaviour:
  m_ObjectHideFlags: 0
  m_CorrespondingSourceObject: {fileID: 0}
  m_PrefabInternal: {fileID: 0}
  m_GameObject: {fileID: 0}
  m_Enabled: 1
  m_EditorHideFlags: 0
  m_Script: {fileID: 11500000, guid: 9009dc10e6a1a894cb39449de50b6cee, type: 3}
  m_Name: 
  m_EditorClassIdentifier: 
  rect:
    serializedVersion: 2
    x: 187
    y: 257
    width: 60
    height: 80
  inPoint:
    rect:
      serializedVersion: 2
      x: 185
      y: 287
      width: 10
      height: 20
    type: 0
    style:
      m_Name: 
      m_Normal:
        m_Background: {fileID: -137945306764144326, guid: 0000000000000000d000000000000000,
          type: 0}
        m_ScaledBackgrounds: []
        m_TextColor: {r: 0, g: 0, b: 0, a: 1}
      m_Hover:
        m_Background: {fileID: 0}
        m_ScaledBackgrounds: []
        m_TextColor: {r: 0, g: 0, b: 0, a: 1}
      m_Active:
        m_Background: {fileID: 7748859771797447999, guid: 0000000000000000d000000000000000,
          type: 0}
        m_ScaledBackgrounds: []
        m_TextColor: {r: 0, g: 0, b: 0, a: 1}
      m_Focused:
        m_Background: {fileID: 0}
        m_ScaledBackgrounds: []
        m_TextColor: {r: 0, g: 0, b: 0, a: 1}
      m_OnNormal:
        m_Background: {fileID: 0}
        m_ScaledBackgrounds: []
        m_TextColor: {r: 0, g: 0, b: 0, a: 1}
      m_OnHover:
        m_Background: {fileID: 0}
        m_ScaledBackgrounds: []
        m_TextColor: {r: 0, g: 0, b: 0, a: 1}
      m_OnActive:
        m_Background: {fileID: 0}
        m_ScaledBackgrounds: []
        m_TextColor: {r: 0, g: 0, b: 0, a: 1}
      m_OnFocused:
        m_Background: {fileID: 0}
        m_ScaledBackgrounds: []
        m_TextColor: {r: 0, g: 0, b: 0, a: 1}
      m_Border:
        m_Left: 4
        m_Right: 4
        m_Top: 12
        m_Bottom: 12
      m_Margin:
        m_Left: 0
        m_Right: 0
        m_Top: 0
        m_Bottom: 0
      m_Padding:
        m_Left: 0
        m_Right: 0
        m_Top: 0
        m_Bottom: 0
      m_Overflow:
        m_Left: 0
        m_Right: 0
        m_Top: 0
        m_Bottom: 0
      m_Font: {fileID: 0}
      m_FontSize: 0
      m_FontStyle: 0
      m_Alignment: 0
      m_WordWrap: 0
      m_RichText: 1
      m_TextClipping: 0
      m_ImagePosition: 0
      m_ContentOffset: {x: 0, y: 0}
      m_FixedWidth: 0
      m_FixedHeight: 0
      m_StretchWidth: 1
      m_StretchHeight: 0
    _nodeID: 162943dc-b94f-475f-b240-0f4071ffe50f
  outPoint:
    rect:
      serializedVersion: 2
      x: 239
      y: 287
      width: 10
      height: 20
    type: 1
    style:
      m_Name: 
      m_Normal:
        m_Background: {fileID: 5361632866341858327, guid: 0000000000000000d000000000000000,
          type: 0}
        m_ScaledBackgrounds: []
        m_TextColor: {r: 0, g: 0, b: 0, a: 1}
      m_Hover:
        m_Background: {fileID: 0}
        m_ScaledBackgrounds: []
        m_TextColor: {r: 0, g: 0, b: 0, a: 1}
      m_Active:
        m_Background: {fileID: 4979192565147231929, guid: 0000000000000000d000000000000000,
          type: 0}
        m_ScaledBackgrounds: []
        m_TextColor: {r: 0, g: 0, b: 0, a: 1}
      m_Focused:
        m_Background: {fileID: 0}
        m_ScaledBackgrounds: []
        m_TextColor: {r: 0, g: 0, b: 0, a: 1}
      m_OnNormal:
        m_Background: {fileID: 0}
        m_ScaledBackgrounds: []
        m_TextColor: {r: 0, g: 0, b: 0, a: 1}
      m_OnHover:
        m_Background: {fileID: 0}
        m_ScaledBackgrounds: []
        m_TextColor: {r: 0, g: 0, b: 0, a: 1}
      m_OnActive:
        m_Background: {fileID: 0}
        m_ScaledBackgrounds: []
        m_TextColor: {r: 0, g: 0, b: 0, a: 1}
      m_OnFocused:
        m_Background: {fileID: 0}
        m_ScaledBackgrounds: []
        m_TextColor: {r: 0, g: 0, b: 0, a: 1}
      m_Border:
        m_Left: 4
        m_Right: 4
        m_Top: 12
        m_Bottom: 12
      m_Margin:
        m_Left: 0
        m_Right: 0
        m_Top: 0
        m_Bottom: 0
      m_Padding:
        m_Left: 0
        m_Right: 0
        m_Top: 0
        m_Bottom: 0
      m_Overflow:
        m_Left: 0
        m_Right: 0
        m_Top: 0
        m_Bottom: 0
      m_Font: {fileID: 0}
      m_FontSize: 0
      m_FontStyle: 0
      m_Alignment: 0
      m_WordWrap: 0
      m_RichText: 1
      m_TextClipping: 0
      m_ImagePosition: 0
      m_ContentOffset: {x: 0, y: 0}
      m_FixedWidth: 0
      m_FixedHeight: 0
      m_StretchWidth: 1
      m_StretchHeight: 0
    _nodeID: 162943dc-b94f-475f-b240-0f4071ffe50f
  currentStyle:
    m_Name: 
    m_Normal:
      m_Background: {fileID: -3453378117783705200, guid: 0000000000000000d000000000000000,
        type: 0}
      m_ScaledBackgrounds: []
      m_TextColor: {r: 0, g: 0, b: 0, a: 1}
    m_Hover:
      m_Background: {fileID: 0}
      m_ScaledBackgrounds: []
      m_TextColor: {r: 0, g: 0, b: 0, a: 1}
    m_Active:
      m_Background: {fileID: 0}
      m_ScaledBackgrounds: []
      m_TextColor: {r: 0, g: 0, b: 0, a: 1}
    m_Focused:
      m_Background: {fileID: 0}
      m_ScaledBackgrounds: []
      m_TextColor: {r: 0, g: 0, b: 0, a: 1}
    m_OnNormal:
      m_Background: {fileID: 0}
      m_ScaledBackgrounds: []
      m_TextColor: {r: 0, g: 0, b: 0, a: 1}
    m_OnHover:
      m_Background: {fileID: 0}
      m_ScaledBackgrounds: []
      m_TextColor: {r: 0, g: 0, b: 0, a: 1}
    m_OnActive:
      m_Background: {fileID: 0}
      m_ScaledBackgrounds: []
      m_TextColor: {r: 0, g: 0, b: 0, a: 1}
    m_OnFocused:
      m_Background: {fileID: 0}
      m_ScaledBackgrounds: []
      m_TextColor: {r: 0, g: 0, b: 0, a: 1}
    m_Border:
      m_Left: 12
      m_Right: 12
      m_Top: 12
      m_Bottom: 12
    m_Margin:
      m_Left: 0
      m_Right: 0
      m_Top: 0
      m_Bottom: 0
    m_Padding:
      m_Left: 0
      m_Right: 0
      m_Top: 0
      m_Bottom: 0
    m_Overflow:
      m_Left: 0
      m_Right: 0
      m_Top: 0
      m_Bottom: 0
    m_Font: {fileID: 0}
    m_FontSize: 0
    m_FontStyle: 0
    m_Alignment: 0
    m_WordWrap: 0
    m_RichText: 1
    m_TextClipping: 0
    m_ImagePosition: 0
    m_ContentOffset: {x: 0, y: 0}
    m_FixedWidth: 0
    m_FixedHeight: 0
    m_StretchWidth: 1
    m_StretchHeight: 0
  GUID: 162943dc-b94f-475f-b240-0f4071ffe50f
  ID: 00000001
  serializableNextNodes:
  - 45953729-3aca-4ac2-95d5-07372e9c787c
  answerPanel: 0
  dialoguePanel: 1
  relationPanel: 0
--- !u!114 &114508920707600754
MonoBehaviour:
  m_ObjectHideFlags: 0
  m_CorrespondingSourceObject: {fileID: 0}
  m_PrefabInternal: {fileID: 0}
  m_GameObject: {fileID: 0}
  m_Enabled: 1
  m_EditorHideFlags: 0
  m_Script: {fileID: 11500000, guid: a87b12b1396c6e64789efbdeef6c193b, type: 3}
  m_Name: 
  m_EditorClassIdentifier: 
  rect:
    serializedVersion: 2
    x: 259
    y: 482
    width: 300
    height: 150
  inPoint:
    rect:
      serializedVersion: 2
      x: 257
      y: 547
      width: 10
      height: 20
    type: 0
    style:
      m_Name: 
      m_Normal:
        m_Background: {fileID: -137945306764144326, guid: 0000000000000000d000000000000000,
          type: 0}
        m_ScaledBackgrounds: []
        m_TextColor: {r: 0, g: 0, b: 0, a: 1}
      m_Hover:
        m_Background: {fileID: 0}
        m_ScaledBackgrounds: []
        m_TextColor: {r: 0, g: 0, b: 0, a: 1}
      m_Active:
        m_Background: {fileID: 7748859771797447999, guid: 0000000000000000d000000000000000,
          type: 0}
        m_ScaledBackgrounds: []
        m_TextColor: {r: 0, g: 0, b: 0, a: 1}
      m_Focused:
        m_Background: {fileID: 0}
        m_ScaledBackgrounds: []
        m_TextColor: {r: 0, g: 0, b: 0, a: 1}
      m_OnNormal:
        m_Background: {fileID: 0}
        m_ScaledBackgrounds: []
        m_TextColor: {r: 0, g: 0, b: 0, a: 1}
      m_OnHover:
        m_Background: {fileID: 0}
        m_ScaledBackgrounds: []
        m_TextColor: {r: 0, g: 0, b: 0, a: 1}
      m_OnActive:
        m_Background: {fileID: 0}
        m_ScaledBackgrounds: []
        m_TextColor: {r: 0, g: 0, b: 0, a: 1}
      m_OnFocused:
        m_Background: {fileID: 0}
        m_ScaledBackgrounds: []
        m_TextColor: {r: 0, g: 0, b: 0, a: 1}
      m_Border:
        m_Left: 4
        m_Right: 4
        m_Top: 12
        m_Bottom: 12
      m_Margin:
        m_Left: 0
        m_Right: 0
        m_Top: 0
        m_Bottom: 0
      m_Padding:
        m_Left: 0
        m_Right: 0
        m_Top: 0
        m_Bottom: 0
      m_Overflow:
        m_Left: 0
        m_Right: 0
        m_Top: 0
        m_Bottom: 0
      m_Font: {fileID: 0}
      m_FontSize: 0
      m_FontStyle: 0
      m_Alignment: 0
      m_WordWrap: 0
      m_RichText: 1
      m_TextClipping: 0
      m_ImagePosition: 0
      m_ContentOffset: {x: 0, y: 0}
      m_FixedWidth: 0
      m_FixedHeight: 0
      m_StretchWidth: 1
      m_StretchHeight: 0
    _nodeID: 4887840d-481a-41c2-9b1f-5425a0445d2e
  outPoint:
    rect:
      serializedVersion: 2
      x: 551
      y: 547
      width: 10
      height: 20
    type: 1
    style:
      m_Name: 
      m_Normal:
        m_Background: {fileID: 5361632866341858327, guid: 0000000000000000d000000000000000,
          type: 0}
        m_ScaledBackgrounds: []
        m_TextColor: {r: 0, g: 0, b: 0, a: 1}
      m_Hover:
        m_Background: {fileID: 0}
        m_ScaledBackgrounds: []
        m_TextColor: {r: 0, g: 0, b: 0, a: 1}
      m_Active:
        m_Background: {fileID: 4979192565147231929, guid: 0000000000000000d000000000000000,
          type: 0}
        m_ScaledBackgrounds: []
        m_TextColor: {r: 0, g: 0, b: 0, a: 1}
      m_Focused:
        m_Background: {fileID: 0}
        m_ScaledBackgrounds: []
        m_TextColor: {r: 0, g: 0, b: 0, a: 1}
      m_OnNormal:
        m_Background: {fileID: 0}
        m_ScaledBackgrounds: []
        m_TextColor: {r: 0, g: 0, b: 0, a: 1}
      m_OnHover:
        m_Background: {fileID: 0}
        m_ScaledBackgrounds: []
        m_TextColor: {r: 0, g: 0, b: 0, a: 1}
      m_OnActive:
        m_Background: {fileID: 0}
        m_ScaledBackgrounds: []
        m_TextColor: {r: 0, g: 0, b: 0, a: 1}
      m_OnFocused:
        m_Background: {fileID: 0}
        m_ScaledBackgrounds: []
        m_TextColor: {r: 0, g: 0, b: 0, a: 1}
      m_Border:
        m_Left: 4
        m_Right: 4
        m_Top: 12
        m_Bottom: 12
      m_Margin:
        m_Left: 0
        m_Right: 0
        m_Top: 0
        m_Bottom: 0
      m_Padding:
        m_Left: 0
        m_Right: 0
        m_Top: 0
        m_Bottom: 0
      m_Overflow:
        m_Left: 0
        m_Right: 0
        m_Top: 0
        m_Bottom: 0
      m_Font: {fileID: 0}
      m_FontSize: 0
      m_FontStyle: 0
      m_Alignment: 0
      m_WordWrap: 0
      m_RichText: 1
      m_TextClipping: 0
      m_ImagePosition: 0
      m_ContentOffset: {x: 0, y: 0}
      m_FixedWidth: 0
      m_FixedHeight: 0
      m_StretchWidth: 1
      m_StretchHeight: 0
    _nodeID: 4887840d-481a-41c2-9b1f-5425a0445d2e
  currentStyle:
    m_Name: 
    m_Normal:
      m_Background: {fileID: -3453378117783705200, guid: 0000000000000000d000000000000000,
        type: 0}
      m_ScaledBackgrounds: []
      m_TextColor: {r: 0, g: 0, b: 0, a: 1}
    m_Hover:
      m_Background: {fileID: 0}
      m_ScaledBackgrounds: []
      m_TextColor: {r: 0, g: 0, b: 0, a: 1}
    m_Active:
      m_Background: {fileID: 0}
      m_ScaledBackgrounds: []
      m_TextColor: {r: 0, g: 0, b: 0, a: 1}
    m_Focused:
      m_Background: {fileID: 0}
      m_ScaledBackgrounds: []
      m_TextColor: {r: 0, g: 0, b: 0, a: 1}
    m_OnNormal:
      m_Background: {fileID: 0}
      m_ScaledBackgrounds: []
      m_TextColor: {r: 0, g: 0, b: 0, a: 1}
    m_OnHover:
      m_Background: {fileID: 0}
      m_ScaledBackgrounds: []
      m_TextColor: {r: 0, g: 0, b: 0, a: 1}
    m_OnActive:
      m_Background: {fileID: 0}
      m_ScaledBackgrounds: []
      m_TextColor: {r: 0, g: 0, b: 0, a: 1}
    m_OnFocused:
      m_Background: {fileID: 0}
      m_ScaledBackgrounds: []
      m_TextColor: {r: 0, g: 0, b: 0, a: 1}
    m_Border:
      m_Left: 12
      m_Right: 12
      m_Top: 12
      m_Bottom: 12
    m_Margin:
      m_Left: 0
      m_Right: 0
      m_Top: 0
      m_Bottom: 0
    m_Padding:
      m_Left: 0
      m_Right: 0
      m_Top: 0
      m_Bottom: 0
    m_Overflow:
      m_Left: 0
      m_Right: 0
      m_Top: 0
      m_Bottom: 0
    m_Font: {fileID: 0}
    m_FontSize: 0
    m_FontStyle: 0
    m_Alignment: 0
    m_WordWrap: 0
    m_RichText: 1
    m_TextClipping: 0
    m_ImagePosition: 0
    m_ContentOffset: {x: 0, y: 0}
    m_FixedWidth: 0
    m_FixedHeight: 0
    m_StretchWidth: 1
    m_StretchHeight: 0
  GUID: 4887840d-481a-41c2-9b1f-5425a0445d2e
  ID: 00000004
  serializableNextNodes:
  - 134017d4-cfe7-4530-bd66-6e7080d4ff4f
  filePath: 
  character:
    characterName: 
    characterText: 
--- !u!114 &114567444487857280
MonoBehaviour:
  m_ObjectHideFlags: 0
  m_CorrespondingSourceObject: {fileID: 0}
  m_PrefabInternal: {fileID: 0}
  m_GameObject: {fileID: 0}
  m_Enabled: 1
  m_EditorHideFlags: 0
  m_Script: {fileID: 11500000, guid: a82115047252aba4fa65f79291c01ba7, type: 3}
  m_Name: 
  m_EditorClassIdentifier: 
  rect:
    serializedVersion: 2
    x: 260
    y: 125
    width: 250
    height: 120
  inPoint:
    rect:
      serializedVersion: 2
      x: 258
      y: 175
      width: 10
      height: 20
    type: 0
    style:
      m_Name: 
      m_Normal:
        m_Background: {fileID: -137945306764144326, guid: 0000000000000000d000000000000000,
          type: 0}
        m_ScaledBackgrounds: []
        m_TextColor: {r: 0, g: 0, b: 0, a: 1}
      m_Hover:
        m_Background: {fileID: 0}
        m_ScaledBackgrounds: []
        m_TextColor: {r: 0, g: 0, b: 0, a: 1}
      m_Active:
        m_Background: {fileID: 7748859771797447999, guid: 0000000000000000d000000000000000,
          type: 0}
        m_ScaledBackgrounds: []
        m_TextColor: {r: 0, g: 0, b: 0, a: 1}
      m_Focused:
        m_Background: {fileID: 0}
        m_ScaledBackgrounds: []
        m_TextColor: {r: 0, g: 0, b: 0, a: 1}
      m_OnNormal:
        m_Background: {fileID: 0}
        m_ScaledBackgrounds: []
        m_TextColor: {r: 0, g: 0, b: 0, a: 1}
      m_OnHover:
        m_Background: {fileID: 0}
        m_ScaledBackgrounds: []
        m_TextColor: {r: 0, g: 0, b: 0, a: 1}
      m_OnActive:
        m_Background: {fileID: 0}
        m_ScaledBackgrounds: []
        m_TextColor: {r: 0, g: 0, b: 0, a: 1}
      m_OnFocused:
        m_Background: {fileID: 0}
        m_ScaledBackgrounds: []
        m_TextColor: {r: 0, g: 0, b: 0, a: 1}
      m_Border:
        m_Left: 4
        m_Right: 4
        m_Top: 12
        m_Bottom: 12
      m_Margin:
        m_Left: 0
        m_Right: 0
        m_Top: 0
        m_Bottom: 0
      m_Padding:
        m_Left: 0
        m_Right: 0
        m_Top: 0
        m_Bottom: 0
      m_Overflow:
        m_Left: 0
        m_Right: 0
        m_Top: 0
        m_Bottom: 0
      m_Font: {fileID: 0}
      m_FontSize: 0
      m_FontStyle: 0
      m_Alignment: 0
      m_WordWrap: 0
      m_RichText: 1
      m_TextClipping: 0
      m_ImagePosition: 0
      m_ContentOffset: {x: 0, y: 0}
      m_FixedWidth: 0
      m_FixedHeight: 0
      m_StretchWidth: 1
      m_StretchHeight: 0
    _nodeID: 45953729-3aca-4ac2-95d5-07372e9c787c
  outPoint:
    rect:
      serializedVersion: 2
      x: 502
      y: 175
      width: 10
      height: 20
    type: 1
    style:
      m_Name: 
      m_Normal:
        m_Background: {fileID: 5361632866341858327, guid: 0000000000000000d000000000000000,
          type: 0}
        m_ScaledBackgrounds: []
        m_TextColor: {r: 0, g: 0, b: 0, a: 1}
      m_Hover:
        m_Background: {fileID: 0}
        m_ScaledBackgrounds: []
        m_TextColor: {r: 0, g: 0, b: 0, a: 1}
      m_Active:
        m_Background: {fileID: 4979192565147231929, guid: 0000000000000000d000000000000000,
          type: 0}
        m_ScaledBackgrounds: []
        m_TextColor: {r: 0, g: 0, b: 0, a: 1}
      m_Focused:
        m_Background: {fileID: 0}
        m_ScaledBackgrounds: []
        m_TextColor: {r: 0, g: 0, b: 0, a: 1}
      m_OnNormal:
        m_Background: {fileID: 0}
        m_ScaledBackgrounds: []
        m_TextColor: {r: 0, g: 0, b: 0, a: 1}
      m_OnHover:
        m_Background: {fileID: 0}
        m_ScaledBackgrounds: []
        m_TextColor: {r: 0, g: 0, b: 0, a: 1}
      m_OnActive:
        m_Background: {fileID: 0}
        m_ScaledBackgrounds: []
        m_TextColor: {r: 0, g: 0, b: 0, a: 1}
      m_OnFocused:
        m_Background: {fileID: 0}
        m_ScaledBackgrounds: []
        m_TextColor: {r: 0, g: 0, b: 0, a: 1}
      m_Border:
        m_Left: 4
        m_Right: 4
        m_Top: 12
        m_Bottom: 12
      m_Margin:
        m_Left: 0
        m_Right: 0
        m_Top: 0
        m_Bottom: 0
      m_Padding:
        m_Left: 0
        m_Right: 0
        m_Top: 0
        m_Bottom: 0
      m_Overflow:
        m_Left: 0
        m_Right: 0
        m_Top: 0
        m_Bottom: 0
      m_Font: {fileID: 0}
      m_FontSize: 0
      m_FontStyle: 0
      m_Alignment: 0
      m_WordWrap: 0
      m_RichText: 1
      m_TextClipping: 0
      m_ImagePosition: 0
      m_ContentOffset: {x: 0, y: 0}
      m_FixedWidth: 0
      m_FixedHeight: 0
      m_StretchWidth: 1
      m_StretchHeight: 0
    _nodeID: 45953729-3aca-4ac2-95d5-07372e9c787c
  currentStyle:
    m_Name: 
    m_Normal:
      m_Background: {fileID: -3453378117783705200, guid: 0000000000000000d000000000000000,
        type: 0}
      m_ScaledBackgrounds: []
      m_TextColor: {r: 0, g: 0, b: 0, a: 1}
    m_Hover:
      m_Background: {fileID: 0}
      m_ScaledBackgrounds: []
      m_TextColor: {r: 0, g: 0, b: 0, a: 1}
    m_Active:
      m_Background: {fileID: 0}
      m_ScaledBackgrounds: []
      m_TextColor: {r: 0, g: 0, b: 0, a: 1}
    m_Focused:
      m_Background: {fileID: 0}
      m_ScaledBackgrounds: []
      m_TextColor: {r: 0, g: 0, b: 0, a: 1}
    m_OnNormal:
      m_Background: {fileID: 0}
      m_ScaledBackgrounds: []
      m_TextColor: {r: 0, g: 0, b: 0, a: 1}
    m_OnHover:
      m_Background: {fileID: 0}
      m_ScaledBackgrounds: []
      m_TextColor: {r: 0, g: 0, b: 0, a: 1}
    m_OnActive:
      m_Background: {fileID: 0}
      m_ScaledBackgrounds: []
      m_TextColor: {r: 0, g: 0, b: 0, a: 1}
    m_OnFocused:
      m_Background: {fileID: 0}
      m_ScaledBackgrounds: []
      m_TextColor: {r: 0, g: 0, b: 0, a: 1}
    m_Border:
      m_Left: 12
      m_Right: 12
      m_Top: 12
      m_Bottom: 12
    m_Margin:
      m_Left: 0
      m_Right: 0
      m_Top: 0
      m_Bottom: 0
    m_Padding:
      m_Left: 0
      m_Right: 0
      m_Top: 0
      m_Bottom: 0
    m_Overflow:
      m_Left: 0
      m_Right: 0
      m_Top: 0
      m_Bottom: 0
    m_Font: {fileID: 0}
    m_FontSize: 0
    m_FontStyle: 0
    m_Alignment: 0
    m_WordWrap: 0
    m_RichText: 1
    m_TextClipping: 0
    m_ImagePosition: 0
    m_ContentOffset: {x: 0, y: 0}
    m_FixedWidth: 0
    m_FixedHeight: 0
    m_StretchWidth: 1
    m_StretchHeight: 0
  GUID: 45953729-3aca-4ac2-95d5-07372e9c787c
  ID: 00000002
  serializableNextNodes:
  - c3ebbda7-c034-4e68-a238-87c853bfb580
  raAmountInt: 1
  left: 1
  background: 0
  foreground: 0
  changeSprite: 0
  emotion: 0
  position: 0
  refName: Dante
  selection: 3
--- !u!114 &114770356816941756
MonoBehaviour:
  m_ObjectHideFlags: 0
  m_CorrespondingSourceObject: {fileID: 0}
  m_PrefabInternal: {fileID: 0}
  m_GameObject: {fileID: 0}
  m_Enabled: 1
  m_EditorHideFlags: 0
  m_Script: {fileID: 11500000, guid: 73d35226539ed4946ae2f1293af8a25e, type: 3}
  m_Name: 
  m_EditorClassIdentifier: 
  rect:
    serializedVersion: 2
    x: 65
    y: 225
    width: 60
    height: 50
  inPoint:
    rect:
      serializedVersion: 2
      x: 0
      y: 0
      width: 10
      height: 20
    type: 0
    style:
      m_Name: 
      m_Normal:
        m_Background: {fileID: -137945306764144326, guid: 0000000000000000d000000000000000,
          type: 0}
        m_ScaledBackgrounds: []
        m_TextColor: {r: 0, g: 0, b: 0, a: 1}
      m_Hover:
        m_Background: {fileID: 0}
        m_ScaledBackgrounds: []
        m_TextColor: {r: 0, g: 0, b: 0, a: 1}
      m_Active:
        m_Background: {fileID: 7748859771797447999, guid: 0000000000000000d000000000000000,
          type: 0}
        m_ScaledBackgrounds: []
        m_TextColor: {r: 0, g: 0, b: 0, a: 1}
      m_Focused:
        m_Background: {fileID: 0}
        m_ScaledBackgrounds: []
        m_TextColor: {r: 0, g: 0, b: 0, a: 1}
      m_OnNormal:
        m_Background: {fileID: 0}
        m_ScaledBackgrounds: []
        m_TextColor: {r: 0, g: 0, b: 0, a: 1}
      m_OnHover:
        m_Background: {fileID: 0}
        m_ScaledBackgrounds: []
        m_TextColor: {r: 0, g: 0, b: 0, a: 1}
      m_OnActive:
        m_Background: {fileID: 0}
        m_ScaledBackgrounds: []
        m_TextColor: {r: 0, g: 0, b: 0, a: 1}
      m_OnFocused:
        m_Background: {fileID: 0}
        m_ScaledBackgrounds: []
        m_TextColor: {r: 0, g: 0, b: 0, a: 1}
      m_Border:
        m_Left: 4
        m_Right: 4
        m_Top: 12
        m_Bottom: 12
      m_Margin:
        m_Left: 0
        m_Right: 0
        m_Top: 0
        m_Bottom: 0
      m_Padding:
        m_Left: 0
        m_Right: 0
        m_Top: 0
        m_Bottom: 0
      m_Overflow:
        m_Left: 0
        m_Right: 0
        m_Top: 0
        m_Bottom: 0
      m_Font: {fileID: 0}
      m_FontSize: 0
      m_FontStyle: 0
      m_Alignment: 0
      m_WordWrap: 0
      m_RichText: 1
      m_TextClipping: 0
      m_ImagePosition: 0
      m_ContentOffset: {x: 0, y: 0}
      m_FixedWidth: 0
      m_FixedHeight: 0
      m_StretchWidth: 1
      m_StretchHeight: 0
    _nodeID: bb8d45bf-2721-49fd-8d0e-22704070f745
  outPoint:
    rect:
      serializedVersion: 2
      x: 117
      y: 240
      width: 10
      height: 20
    type: 1
    style:
      m_Name: 
      m_Normal:
        m_Background: {fileID: 5361632866341858327, guid: 0000000000000000d000000000000000,
          type: 0}
        m_ScaledBackgrounds: []
        m_TextColor: {r: 0, g: 0, b: 0, a: 1}
      m_Hover:
        m_Background: {fileID: 0}
        m_ScaledBackgrounds: []
        m_TextColor: {r: 0, g: 0, b: 0, a: 1}
      m_Active:
        m_Background: {fileID: 4979192565147231929, guid: 0000000000000000d000000000000000,
          type: 0}
        m_ScaledBackgrounds: []
        m_TextColor: {r: 0, g: 0, b: 0, a: 1}
      m_Focused:
        m_Background: {fileID: 0}
        m_ScaledBackgrounds: []
        m_TextColor: {r: 0, g: 0, b: 0, a: 1}
      m_OnNormal:
        m_Background: {fileID: 0}
        m_ScaledBackgrounds: []
        m_TextColor: {r: 0, g: 0, b: 0, a: 1}
      m_OnHover:
        m_Background: {fileID: 0}
        m_ScaledBackgrounds: []
        m_TextColor: {r: 0, g: 0, b: 0, a: 1}
      m_OnActive:
        m_Background: {fileID: 0}
        m_ScaledBackgrounds: []
        m_TextColor: {r: 0, g: 0, b: 0, a: 1}
      m_OnFocused:
        m_Background: {fileID: 0}
        m_ScaledBackgrounds: []
        m_TextColor: {r: 0, g: 0, b: 0, a: 1}
      m_Border:
        m_Left: 4
        m_Right: 4
        m_Top: 12
        m_Bottom: 12
      m_Margin:
        m_Left: 0
        m_Right: 0
        m_Top: 0
        m_Bottom: 0
      m_Padding:
        m_Left: 0
        m_Right: 0
        m_Top: 0
        m_Bottom: 0
      m_Overflow:
        m_Left: 0
        m_Right: 0
        m_Top: 0
        m_Bottom: 0
      m_Font: {fileID: 0}
      m_FontSize: 0
      m_FontStyle: 0
      m_Alignment: 0
      m_WordWrap: 0
      m_RichText: 1
      m_TextClipping: 0
      m_ImagePosition: 0
      m_ContentOffset: {x: 0, y: 0}
      m_FixedWidth: 0
      m_FixedHeight: 0
      m_StretchWidth: 1
      m_StretchHeight: 0
    _nodeID: bb8d45bf-2721-49fd-8d0e-22704070f745
  currentStyle:
    m_Name: 
    m_Normal:
      m_Background: {fileID: -3453378117783705200, guid: 0000000000000000d000000000000000,
        type: 0}
      m_ScaledBackgrounds: []
      m_TextColor: {r: 0, g: 0, b: 0, a: 1}
    m_Hover:
      m_Background: {fileID: 0}
      m_ScaledBackgrounds: []
      m_TextColor: {r: 0, g: 0, b: 0, a: 1}
    m_Active:
      m_Background: {fileID: 0}
      m_ScaledBackgrounds: []
      m_TextColor: {r: 0, g: 0, b: 0, a: 1}
    m_Focused:
      m_Background: {fileID: 0}
      m_ScaledBackgrounds: []
      m_TextColor: {r: 0, g: 0, b: 0, a: 1}
    m_OnNormal:
      m_Background: {fileID: 0}
      m_ScaledBackgrounds: []
      m_TextColor: {r: 0, g: 0, b: 0, a: 1}
    m_OnHover:
      m_Background: {fileID: 0}
      m_ScaledBackgrounds: []
      m_TextColor: {r: 0, g: 0, b: 0, a: 1}
    m_OnActive:
      m_Background: {fileID: 0}
      m_ScaledBackgrounds: []
      m_TextColor: {r: 0, g: 0, b: 0, a: 1}
    m_OnFocused:
      m_Background: {fileID: 0}
      m_ScaledBackgrounds: []
      m_TextColor: {r: 0, g: 0, b: 0, a: 1}
    m_Border:
      m_Left: 12
      m_Right: 12
      m_Top: 12
      m_Bottom: 12
    m_Margin:
      m_Left: 0
      m_Right: 0
      m_Top: 0
      m_Bottom: 0
    m_Padding:
      m_Left: 0
      m_Right: 0
      m_Top: 0
      m_Bottom: 0
    m_Overflow:
      m_Left: 0
      m_Right: 0
      m_Top: 0
      m_Bottom: 0
    m_Font: {fileID: 0}
    m_FontSize: 0
    m_FontStyle: 0
    m_Alignment: 0
    m_WordWrap: 0
    m_RichText: 1
    m_TextClipping: 0
    m_ImagePosition: 0
    m_ContentOffset: {x: 0, y: 0}
    m_FixedWidth: 0
    m_FixedHeight: 0
    m_StretchWidth: 1
    m_StretchHeight: 0
  GUID: bb8d45bf-2721-49fd-8d0e-22704070f745
  ID: 00000000
  serializableNextNodes:
  - 162943dc-b94f-475f-b240-0f4071ffe50f
--- !u!114 &114965145086039752
MonoBehaviour:
  m_ObjectHideFlags: 0
  m_CorrespondingSourceObject: {fileID: 0}
  m_PrefabInternal: {fileID: 0}
  m_GameObject: {fileID: 0}
  m_Enabled: 1
  m_EditorHideFlags: 0
  m_Script: {fileID: 11500000, guid: a82115047252aba4fa65f79291c01ba7, type: 3}
  m_Name: 
  m_EditorClassIdentifier: 
  rect:
    serializedVersion: 2
    x: 336
    y: 284
    width: 250
    height: 120
  inPoint:
    rect:
      serializedVersion: 2
      x: 334
      y: 334
      width: 10
      height: 20
    type: 0
    style:
      m_Name: 
      m_Normal:
        m_Background: {fileID: -137945306764144326, guid: 0000000000000000d000000000000000,
          type: 0}
        m_ScaledBackgrounds: []
        m_TextColor: {r: 0, g: 0, b: 0, a: 1}
      m_Hover:
        m_Background: {fileID: 0}
        m_ScaledBackgrounds: []
        m_TextColor: {r: 0, g: 0, b: 0, a: 1}
      m_Active:
        m_Background: {fileID: 7748859771797447999, guid: 0000000000000000d000000000000000,
          type: 0}
        m_ScaledBackgrounds: []
        m_TextColor: {r: 0, g: 0, b: 0, a: 1}
      m_Focused:
        m_Background: {fileID: 0}
        m_ScaledBackgrounds: []
        m_TextColor: {r: 0, g: 0, b: 0, a: 1}
      m_OnNormal:
        m_Background: {fileID: 0}
        m_ScaledBackgrounds: []
        m_TextColor: {r: 0, g: 0, b: 0, a: 1}
      m_OnHover:
        m_Background: {fileID: 0}
        m_ScaledBackgrounds: []
        m_TextColor: {r: 0, g: 0, b: 0, a: 1}
      m_OnActive:
        m_Background: {fileID: 0}
        m_ScaledBackgrounds: []
        m_TextColor: {r: 0, g: 0, b: 0, a: 1}
      m_OnFocused:
        m_Background: {fileID: 0}
        m_ScaledBackgrounds: []
        m_TextColor: {r: 0, g: 0, b: 0, a: 1}
      m_Border:
        m_Left: 4
        m_Right: 4
        m_Top: 12
        m_Bottom: 12
      m_Margin:
        m_Left: 0
        m_Right: 0
        m_Top: 0
        m_Bottom: 0
      m_Padding:
        m_Left: 0
        m_Right: 0
        m_Top: 0
        m_Bottom: 0
      m_Overflow:
        m_Left: 0
        m_Right: 0
        m_Top: 0
        m_Bottom: 0
      m_Font: {fileID: 0}
      m_FontSize: 0
      m_FontStyle: 0
      m_Alignment: 0
      m_WordWrap: 0
      m_RichText: 1
      m_TextClipping: 0
      m_ImagePosition: 0
      m_ContentOffset: {x: 0, y: 0}
      m_FixedWidth: 0
      m_FixedHeight: 0
      m_StretchWidth: 1
      m_StretchHeight: 0
    _nodeID: c3ebbda7-c034-4e68-a238-87c853bfb580
  outPoint:
    rect:
      serializedVersion: 2
      x: 578
      y: 334
      width: 10
      height: 20
    type: 1
    style:
      m_Name: 
      m_Normal:
        m_Background: {fileID: 5361632866341858327, guid: 0000000000000000d000000000000000,
          type: 0}
        m_ScaledBackgrounds: []
        m_TextColor: {r: 0, g: 0, b: 0, a: 1}
      m_Hover:
        m_Background: {fileID: 0}
        m_ScaledBackgrounds: []
        m_TextColor: {r: 0, g: 0, b: 0, a: 1}
      m_Active:
        m_Background: {fileID: 4979192565147231929, guid: 0000000000000000d000000000000000,
          type: 0}
        m_ScaledBackgrounds: []
        m_TextColor: {r: 0, g: 0, b: 0, a: 1}
      m_Focused:
        m_Background: {fileID: 0}
        m_ScaledBackgrounds: []
        m_TextColor: {r: 0, g: 0, b: 0, a: 1}
      m_OnNormal:
        m_Background: {fileID: 0}
        m_ScaledBackgrounds: []
        m_TextColor: {r: 0, g: 0, b: 0, a: 1}
      m_OnHover:
        m_Background: {fileID: 0}
        m_ScaledBackgrounds: []
        m_TextColor: {r: 0, g: 0, b: 0, a: 1}
      m_OnActive:
        m_Background: {fileID: 0}
        m_ScaledBackgrounds: []
        m_TextColor: {r: 0, g: 0, b: 0, a: 1}
      m_OnFocused:
        m_Background: {fileID: 0}
        m_ScaledBackgrounds: []
        m_TextColor: {r: 0, g: 0, b: 0, a: 1}
      m_Border:
        m_Left: 4
        m_Right: 4
        m_Top: 12
        m_Bottom: 12
      m_Margin:
        m_Left: 0
        m_Right: 0
        m_Top: 0
        m_Bottom: 0
      m_Padding:
        m_Left: 0
        m_Right: 0
        m_Top: 0
        m_Bottom: 0
      m_Overflow:
        m_Left: 0
        m_Right: 0
        m_Top: 0
        m_Bottom: 0
      m_Font: {fileID: 0}
      m_FontSize: 0
      m_FontStyle: 0
      m_Alignment: 0
      m_WordWrap: 0
      m_RichText: 1
      m_TextClipping: 0
      m_ImagePosition: 0
      m_ContentOffset: {x: 0, y: 0}
      m_FixedWidth: 0
      m_FixedHeight: 0
      m_StretchWidth: 1
      m_StretchHeight: 0
    _nodeID: c3ebbda7-c034-4e68-a238-87c853bfb580
  currentStyle:
    m_Name: 
    m_Normal:
      m_Background: {fileID: -3453378117783705200, guid: 0000000000000000d000000000000000,
        type: 0}
      m_ScaledBackgrounds: []
      m_TextColor: {r: 0, g: 0, b: 0, a: 1}
    m_Hover:
      m_Background: {fileID: 0}
      m_ScaledBackgrounds: []
      m_TextColor: {r: 0, g: 0, b: 0, a: 1}
    m_Active:
      m_Background: {fileID: 0}
      m_ScaledBackgrounds: []
      m_TextColor: {r: 0, g: 0, b: 0, a: 1}
    m_Focused:
      m_Background: {fileID: 0}
      m_ScaledBackgrounds: []
      m_TextColor: {r: 0, g: 0, b: 0, a: 1}
    m_OnNormal:
      m_Background: {fileID: 0}
      m_ScaledBackgrounds: []
      m_TextColor: {r: 0, g: 0, b: 0, a: 1}
    m_OnHover:
      m_Background: {fileID: 0}
      m_ScaledBackgrounds: []
      m_TextColor: {r: 0, g: 0, b: 0, a: 1}
    m_OnActive:
      m_Background: {fileID: 0}
      m_ScaledBackgrounds: []
      m_TextColor: {r: 0, g: 0, b: 0, a: 1}
    m_OnFocused:
      m_Background: {fileID: 0}
      m_ScaledBackgrounds: []
      m_TextColor: {r: 0, g: 0, b: 0, a: 1}
    m_Border:
      m_Left: 12
      m_Right: 12
      m_Top: 12
      m_Bottom: 12
    m_Margin:
      m_Left: 0
      m_Right: 0
      m_Top: 0
      m_Bottom: 0
    m_Padding:
      m_Left: 0
      m_Right: 0
      m_Top: 0
      m_Bottom: 0
    m_Overflow:
      m_Left: 0
      m_Right: 0
      m_Top: 0
      m_Bottom: 0
    m_Font: {fileID: 0}
    m_FontSize: 0
    m_FontStyle: 0
    m_Alignment: 0
    m_WordWrap: 0
    m_RichText: 1
    m_TextClipping: 0
    m_ImagePosition: 0
    m_ContentOffset: {x: 0, y: 0}
    m_FixedWidth: 0
    m_FixedHeight: 0
    m_StretchWidth: 1
    m_StretchHeight: 0
  GUID: c3ebbda7-c034-4e68-a238-87c853bfb580
  ID: 00000003
  serializableNextNodes:
  - 4887840d-481a-41c2-9b1f-5425a0445d2e
  raAmountInt: 1
  left: 0
  background: 0
  foreground: 0
  changeSprite: 1
  emotion: 1
  position: 0
  refName: 
  selection: 0
